<?xml version="1.0" encoding="UTF-8"?>
<svg id="Calque_1" data-name="Calque 1" xmlns="http://www.w3.org/2000/svg" viewBox="0 0 544 544">
  <defs>
    <style>
      .cls-1 {
        fill: #140f0b;
        stroke-width: 0px;
      }
    </style>
  </defs>
  <path class="cls-1" d="m485.92,146.72c-6.3,92.38,4.27,185.1,2.34,277.68-.21,9.92-2.69,22.51-12.42,24.42-2.4.47-5.1.2-7.08,1.64-4.41,3.22-.77,10.3-2.17,15.58-1.44,5.46-7.97,7.74-13.6,8.08s-11.73-.26-16.5,2.76c-2.42,1.53-4.22,3.86-6.49,5.6-3.64,2.8-8.27,3.95-12.79,4.75-18,3.18-36.45,1.88-54.68.57-97.06-6.99-194.12-13.98-291.19-20.97-3.32-.24-6.73-.5-9.71-1.98-9.39-4.65-9.59-17.74-8.44-28.15,9.89-89.02,19.78-178.04,29.67-267.06.84-7.55,1.8-15.44,6.07-21.73s12.99-10.25,19.71-6.69c-1.95-1.03,4.15-17.6,4.93-19.49,2.67-6.48,6.29-12.57,10.69-18.02,4.26-5.28,9.5-10.71,15.39-14.19,6.61-3.91,16.24-2.23,23.83-2.36,36.65-.61,73.3-1.12,109.95-1.04,52.01.12,104.05,1.46,155.92,5.45,10.88.84,22.04,1.87,31.85,6.63,9.82,4.77,18.15,14.12,18.55,25.03.16,4.4-.95,8.79-.66,13.18.29,4.39,2.57,9.18,6.82,10.3Zm-292.76,9.47c67.36.31,135.38,3.02,202.9,4.41l2.21.05c2.2.05,4.56.04,6.37-1.21,2.74-1.89,3.06-5.72,3.36-9.03,1.76-19.28,12.15-37.6,27.78-49.01-73.44-2.49-146.91-4.21-220.39-5.18-13.59-.18-27.19-.33-40.78-.46-12-.11-24.4-2.9-34.06,5.13-15,12.47-22.45,33.42-18.15,52.51.65,2.82,1.21,6.49-1.27,7.99-2.66,1.6-5.92-1.2-7.07-4.09-1.15-2.89-1.57-6.34-4.03-8.24-3.15-2.44-8.07-.73-10.4,2.49s-2.78,7.4-3.15,11.36c-8.75,94.17-17.51,188.33-26.26,282.5-.21,2.29-.37,4.8.93,6.7,1.7,2.47,5.13,2.88,8.12,3.05,109.66,6.47,219.32,12.94,328.98,19.41,2.04.12,4.25.2,5.94-.96,2.46-1.69,2.71-5.15,2.78-8.14.48-22.77,3.93-45.36,7.59-67.84,13.48-82.95,29.86-165.44,49.09-247.25-16.28-.43-32.55-.87-48.83-1.3-2.23,8.66-1.35,18.08,2.43,26.18-90.43-4.25-180.99-5.8-271.52-4.66-9.1.11-19.26-.14-25.75-6.53,3.53-1.22,5.92-5.13,5.41-8.83,15.05.31,30.1.62,45.15.93,4.21,0,8.43.01,12.65.03Zm251.97-13.31c0-.08,0-.16,0-.25,6.11,0,12.21,0,18.32,0,2.39,0,2.99-.62,2.99-3.17,0-2.62-.26-5.26-.05-7.86.72-9.03-1.96-17.26-5.64-25.28-.77-1.68-1.85-2-3.75-.98-5,2.68-10.19,5.09-14.89,8.23-7.48,5.01-14.25,10.68-16.79,20.1-.71,2.61-1.23,5-.89,7.6.27,2.04.88,2.57,3.03,2.48,5.9-.25,11.79-.57,17.68-.86Zm23.05,134.15c-.88,3.15-.46,7.1-.55,10.44-.91,36.3-2.83,72.51-2.44,108.83.06,5.93.2,12.02,2.43,17.52,4.86-8.47,1.97-18.69,2.19-27.81.29-11.56.57-23.12.85-34.68.48-19.74-1.24-38.85-2.16-58.48-.19-4.09,1.47-12.79-.33-15.82Zm-21.55,122.99c-.45,2.25-1.42,4.47-2.25,6.66-1.87,4.92-2.91,10.08-3.66,15.18-1.63,11.19-2.61,22.47-3.77,33.72-.43,4.22.45,5.47,4.26,6.86,3.81,1.39,4.54.78,4.29-3.14-.21-3.25-.24-6.52-.19-9.78.16-11.94.33-23.88.6-35.81.1-4.56.47-9.12.72-13.69Z"/>
  <path class="cls-1" d="m384.59,245.03c-.77,15.28-8.51,29.79-18.15,41.88-7.79,9.77-17.29,18.69-29.04,22.93-10.06,3.63-21.12,3.59-31.69,1.93-8.6-1.36-17.38-3.95-23.75-9.88-7.37-6.86-10.47-17.42-10.17-27.48.3-10.07,3.63-19.79,7.49-29.09,4.32-10.42,9.41-20.66,16.59-29.37,16.72-20.3,45.75-28.38,68.44-12.52,11.74,8.21,19.43,21.96,20.27,36.27.11,1.79.11,3.57.02,5.34Zm-13.68.88c.08-4.32-.41-8.67-1.18-12.92-1.49-8.18-4.68-17-12.07-20.82-4.23-2.19-9.51-2.53-12.96-5.82-1.1-1.05-1.95-2.35-3.17-3.26-3.88-2.88-13.44,3.05-17.18,4.78-6.52,3.03-12.81,6.78-17.71,12.13-5.26,5.74-8.61,12.93-11.71,20.08-5.81,13.41-11.11,28.07-8,42.35.43,1.95,1.02,3.91,2.16,5.55,1.49,2.17,3.8,3.63,6.13,4.84,16.12,8.34,36.99,6.5,51.4-4.53,6.07-4.65,10.95-10.67,15.23-17,3.03-4.48,5.83-9.21,7.41-14.39,1.09-3.57,1.58-7.26,1.65-10.98Z"/>
  <path class="cls-1" d="m191.01,293.52c15.1-.04,30.19-.32,45.28-.83,2.31-.08,4.7-.15,6.86.67,2.16.82,4.08,2.77,4.11,5.08.03,2.24-1.71,4.2-3.75,5.12-2.04.92-4.35,1.01-6.59,1.08-38.2,1.17-76.49-.34-114.48-4.5-1.11-.12-2.36-.32-3.02-1.23-.36-.5-.47-1.14-.52-1.75-.38-5.18,3.29-9.94,7.77-12.57,4.48-2.63,9.69-3.61,14.73-4.88,15.55-3.92,30.62-11.24,41.39-23.13,10.76-11.89,16.66-28.76,13.05-44.38-.84-3.65-2.25-7.3-4.93-9.92-3.75-3.66-9.38-4.69-14.62-4.45-5.91.28-11.86,2.04-16.5,5.7-4.65,3.66-7.85,9.34-7.79,15.26.02,1.72.23,3.66-.89,4.97-1.1,1.29-3.11,1.39-4.72.83-3.99-1.4-6.09-6.13-5.59-10.33.5-4.2,3.05-7.89,5.95-10.96,9.96-10.54,30.36-19.38,44.39-11.82,3.21,1.73,5.82,4.43,7.93,7.41,7.86,11.12,8.84,26.06,5.18,39.17-3.66,13.11-11.48,24.68-20.11,35.21-3.89,4.75-8.14,9.47-13.72,12.06-4.5,2.09-9.88,2.81-13.29,6.42,5.73,1.59,11.75,1.69,17.69,1.74,5.4.05,10.8.06,16.2.05Z"/>
  <path class="cls-1" d="m373.77,420.84c0,.13,0,.27,0,.41-.11,3.33-2.95,6.07-6.1,7.15-3.16,1.07-6.59.83-9.91.57-26.63-2.05-53.27-4.09-79.9-6.14-4.92-.38-10.11-.85-14.11-3.74-5.22-3.77-6.64-11.01.71-11.35,8.25-.38,16.83.65,25.08.96,23.33.87,46.66,1.73,69.95,3.34,3.14.22,6.37.47,9.2,1.86,2.7,1.33,4.98,3.96,5.09,6.94Z"/>
  <path class="cls-1" d="m205.97,417.69c-22.72-1-45.38-3.11-68.03-5.22-5.2-.48-16.87-2.11-17.4-9.28-.39-5.33,5.37-3.46,9.24-3.24,5.87.33,11.73.66,17.6.99,22,1.23,44,2.46,66,3.7,2.56.14,5.21.31,7.51,1.44,2.3,1.13,4.2,3.5,3.97,6.06-.22,2.39-2.24,4.31-4.49,5.13-2.25.83-4.72.77-7.12.69-2.43-.08-4.85-.17-7.28-.28Z"/>
</svg>