<svg width="160" height="160" viewBox="0 0 160 160" fill="none" xmlns="http://www.w3.org/2000/svg">
<g clip-path="url(#clip0_118_3343)">
<path fill-rule="evenodd" clip-rule="evenodd" d="M1.34707 86.5885L1.34715 86.587L1.34716 86.5868C1.58647 82.0053 1.78308 78.2414 1.95683 74.4775C2.41137 64.9313 5.89224 55.7311 12.0405 46.9605C16.462 40.7433 21.473 34.965 27.0044 29.7057C36.2387 20.8396 50.5447 16.0546 68.5946 14.026C78.0218 12.9574 87.5279 12.7617 96.9913 13.4413C112.541 14.563 124.766 18.9423 134.539 25.7321C142.792 31.4717 146.703 38.0586 147.864 45.0513C149.955 57.898 149.105 71.0505 145.376 83.5226C142.852 92.2574 140.017 100.932 134.933 109.262C128.665 119.524 120.292 129.213 111.01 138.64C105.891 143.843 99.0486 148.377 91.4411 152.494C88.2775 154.202 84.9669 155.624 81.5489 156.742C66.4123 161.929 49.843 161.008 35.3774 154.177C21.0236 147.411 10.7246 139.129 5.83236 129.118C2.95437 123.406 1.37384 117.132 1.20325 110.741C1.11896 105.998 1.07629 101.315 1.0417 97.5172C1.0272 95.9262 1.01413 94.4907 1 93.2716C1.12534 90.8334 1.24044 88.6298 1.34707 86.5885ZM143.844 62.6044C143.92 61.142 144.014 59.6809 144.108 58.2201C144.313 55.0322 144.518 51.8464 144.526 48.655C144.526 42.2351 141.225 36.1494 134.85 30.6006C126.967 23.7512 115.831 19.2526 101.596 17.2479C87.6014 15.279 74.1567 16.3052 61.2981 18.5127C50.2576 20.41 40.4492 23.7035 34.2292 29.3358C23.4638 39.0371 15.4137 49.4545 11.5023 60.8025C10.0814 64.8798 9.45798 69.066 8.83509 73.2485C8.60846 74.7702 8.38191 76.2915 8.11705 77.8067C6.2009 89.6698 5.64308 101.712 6.45438 113.701C6.88552 121.658 10.1915 129.191 15.7605 134.905C21.9999 141.602 29.4509 147.064 37.7218 151.002C44.7367 154.512 52.4257 156.476 60.268 156.762C68.1102 157.049 75.9225 155.65 83.1756 152.661C86.0741 151.434 88.8734 149.986 91.5487 148.33C104.06 140.704 112.9 131.695 121.201 122.519C126.931 116.183 130.771 109.393 134.192 102.52C140.472 90.1424 143.776 76.4766 143.844 62.6044ZM32.363 92.866C32.7176 79.8563 35.6614 67.0467 41.0232 55.1822C45.0737 46.2356 51.0579 38.2935 58.5468 31.9252C68.4988 23.1307 90.4123 20.8516 107.685 30.0279C115.866 34.3714 120.579 39.5741 120.627 45.6241C120.711 55.3373 120.747 65.0626 117.912 74.5968C117.065 77.2691 115.93 79.8417 114.527 82.2696C113.407 84.2915 112.294 86.3147 111.181 88.3379C106.657 96.5602 102.134 104.783 97.1707 112.913C93.8177 118.15 89.9768 123.061 85.6994 127.578C81.6034 131.948 76.4507 135.194 70.7356 137.005C66.5677 138.469 62.1302 139.008 57.7321 138.585C53.3339 138.163 49.081 136.789 45.2696 134.559C38.2721 130.717 34.6476 125.991 33.2242 120.801C31.0353 112.841 31.3942 104.918 32.1358 97.0186C32.2268 96.0776 32.2663 95.1139 32.3057 94.151C32.3233 93.7218 32.3409 93.2927 32.363 92.866ZM37.0281 95.4912C37.0902 97.7502 37.1374 100.009 37.1846 102.268V102.269C37.3009 107.838 37.4173 113.409 37.7577 118.987C38.0567 123.975 40.9156 128.629 47.0758 132.65C50.4468 134.839 54.3011 136.178 58.3063 136.55C62.3116 136.922 66.3475 136.317 70.0658 134.786C71.5768 134.277 73.0098 133.563 74.324 132.662C75.0013 132.143 75.6936 131.627 76.3869 131.11L76.3877 131.109C79.0243 129.144 81.6738 127.169 83.5584 124.977C87.5696 120.299 91.2697 115.364 94.6348 110.204C101.106 100.348 107.362 90.4078 111.644 80.1098C113.493 75.5184 114.786 70.7233 115.496 65.8263C116.09 60.9047 116.373 55.9508 116.345 50.9938C116.429 47.8316 116.345 44.6456 116.106 41.4476C115.95 38.9656 114.084 36.7461 110.902 34.8965C108.426 33.4174 105.875 32.0671 103.259 30.8513C92.1676 26.0081 79.6098 25.7208 68.3075 30.0518C64.5485 31.4885 61.16 33.7475 58.3913 36.6625C53.2409 42.2954 49.163 48.8179 46.358 55.9101C41.2145 68.9288 38.6668 82.1384 37.0281 95.4912ZM58.7605 69.3295C55.8976 76.2059 53.0239 83.1084 52.8533 90.5394C52.8071 90.83 52.7595 91.1273 52.7111 91.4301C52.4711 92.9309 52.209 94.5692 51.9801 96.2075C51.4777 99.9425 53.8581 103.308 57.8293 106.386C59.9902 108.08 62.6245 109.063 65.3689 109.199C68.1134 109.336 70.8327 108.62 73.152 107.15C74.8742 106.085 76.4539 104.806 77.8529 103.343C89.2044 90.8974 95.0775 77.4969 95.9507 63.285C96.1482 59.8134 95.1431 56.3797 93.1039 53.5597C89.2522 48.011 77.3625 46.3643 71.31 50.2424C68.4273 52.092 65.676 53.87 64.5994 56.3281C63.8266 58.1041 63.0038 59.873 62.181 61.6422C61.1573 63.8433 60.1333 66.0448 59.2049 68.2609C59.0571 68.6171 58.9088 68.9733 58.7605 69.3295ZM92.551 69.0318C92.4387 67.7741 92.3397 66.6027 92.246 65.4926C92.0215 62.834 91.8266 60.5268 91.5488 58.2255C91.3672 57.1856 90.9898 56.1896 90.4365 55.29C89.2403 53.2017 86.8479 51.5908 82.8767 51.2567C78.9055 50.9226 75.1137 51.2567 72.8769 53.1421C71.1099 54.649 69.5459 56.3777 68.2238 58.2851C67.095 60.0451 66.206 61.9472 65.5804 63.9413C63.9775 68.7144 62.4106 73.4874 60.8436 78.2605C59.2766 83.0337 57.7096 87.8068 56.1068 92.5799C55.5098 94.1165 55.2948 95.7745 55.4802 97.412C55.6656 99.0496 56.2459 100.618 57.1714 101.983C58.314 103.576 59.8184 104.876 61.5613 105.778C65.2694 107.77 68.7381 107.627 71.6208 105.455C73.424 104.026 75.0862 102.427 76.5849 100.682C81.6134 95.0109 85.5327 88.4501 88.1398 81.3393C89.392 78.2036 90.4743 75.0498 91.4386 72.2398C91.8274 71.1066 92.1971 70.0294 92.551 69.0318Z" fill="#E8D234"/>
</g>
<defs>
<clipPath id="clip0_118_3343">
<rect width="160" height="160" fill="white"/>
</clipPath>
</defs>
</svg>
