<?xml version="1.0" encoding="UTF-8"?>
<svg id="Calque_1" width="256" data-name="Calque 1" xmlns="http://www.w3.org/2000/svg" xmlns:xlink="http://www.w3.org/1999/xlink" viewBox="0 0 717 537">
  <defs>
    <style>
      .cls-1 {
        fill: #e7d134;
      }

      .cls-1, .cls-2, .cls-3, .cls-4 {
        stroke-width: 0px;
      }

      .cls-2 {
        fill: none;
      }

      .cls-3 {
        fill: #fff;
      }

      .cls-5 {
        clip-path: url(#clippath);
      }

      .cls-4 {
        fill: #00a2a7;
      }
    </style>
    <clipPath id="clippath">
      <rect class="cls-2" x="173.5" y="32.5" width="386" height="330"/>
    </clipPath>
  </defs>
  <g class="cls-5">
    <g>
      <path class="cls-1" d="m353.79,262.02c2.12-24.28,3.06-49.23,3.99-73.63.19-4.91-.02-9.84-.21-14.78,0,0-.09-3.7-.09-3.7.05-3.32.06-6.4-2.34-8.87-6.58-6.97-15.22-12.35-22.85-18.18-3.98-3-7.65-6.18-11.74-9.07-2.17-1.74-4.49-5.57-1.46-7.76,2.55-1.51,5.6-.92,8.34-.52,5.28,1.12,9.63,3.91,13.8,6.05,2.64,1.26,6.04,3.07,8.77,2.89,3.25-.95.08-12.41-.32-15.23-2.08-9.59-5.42-18.81-9.44-27.77-1.49-3.46-2.92-6.99-3.62-10.78-.4-2.55-.44-6.66,2.84-7.54,1.37-.32,2.8.32,3.89,1.08,2.96,1.89,4.41,5.2,5.81,8.17,2.15,4.42,4.21,8.89,6.27,13.35,1.53,3.36,2.93,6.77,4.27,10.21.29.89.94,1.86,1.62,2.29-.01.01-.04.08.03.04.08.04.26-.26.31-.79.31-3.59.12-7.28-.34-10.87-1.19-8.53-3.8-16.91-4.44-25.56-.01-1.21-.27-2.69-.03-4.03.22-1.9,2.49-3.35,4.35-3.08,3.31.13,5.2,3.81,6.06,6.4,2.26,5.84,3.51,12.16,4.64,18.15,1.28,6.21,2.23,12.24,4.26,18.13.17.46.26.29-.22.29-.16,0-.37.16-.37.21.02.09.3-.34.41-.77l.42-1.74c2.36-10.28.03-21.14,2.55-31.44,2.07-5.73,7.48-3.96,8.28,1.52,3,11.99.28,25.27,2.47,36.58,0,0-3.77-1.06-3.77-1.06,7.08-5.44,7.2-15.93,11.18-23.58,1.61-4.26,5.91-4.64,7.71-.21,1.65,4.73-.09,9.8-1.44,14.24-4.69,15.49-1.77,31.46-3.61,47.46,0,0-3.95.79-3.95.79-.02,0,.07.09.09.09-.41-.05-1.14.3-1.36.73-.4.95-.2,1.88.06,3,1.01,3.16,2.02,7.22,2.28,10.68,1.29,21.22.56,42.76,1.22,63.93,0,0-4,.12-4,.12-.47-17.63-.42-35.56-.84-53.17-.14-7.06-.4-13.85-2.72-20.52-.6-2.14-.71-5.16.97-6.99,1.95-2.38,6.34-2.95,8.01.09,0,0-3.95.79-3.95.79.83-7.79.59-15.78.77-23.87.2-7.09.66-14.39,2.64-21.28,1.28-4.83,4.02-9.86,3.19-14.52-.11-.68-.68-2.11-1.44-1.88-.34.13-.87.86-1.3,1.74-2.36,4.35-3.38,9.11-4.89,13.96-1.19,3.89-2.65,7.92-5.43,11.57-.7.92-2.01,1.1-2.93.4-.5-.36-.72-.9-.84-1.46-2.82-9.87-.88-20.04-.92-29.89-.03-2.88-.13-5.89-.75-8.67-.22-.66-.38-1.19-.95-1.29-.63.08-1.18.93-1.48,1.61-.64,1.56-.87,3.4-1.2,5.09-1.27,8.53-.42,17.18-.95,25.83-.13.85-.1,2.28-.42,3.09-.58,2.13-3.1,3.03-4.8,1.53-.74-.63-1.17-1.4-1.53-2.12-3-5.6-4.61-11.99-5.57-18.07-.84-4.88-1.5-9.68-2.5-14.35-.51-2.09-1.03-4.72-1.89-6.53-.39-.7-.76-1.22-1.55-1.41-1.4-.3-1.41.85-1.47,2.06-.83,12.99,3.8,25.48,4.62,38.38.08,4.01-3.89,4.28-6.07,1.64-1.31-1.53-2.03-3.4-2.99-5.13-3.39-6.55-6.35-13.31-9.35-20.05-1.42-3.15-2.56-6.51-5.46-7.63,0-.02.02-.03-.02-.02-.09.02-.29.4-.41.81-.52,1.84-.07,4.22.49,6.52,1.87,7.06,5.01,13.82,7.14,20.85,1.55,4.69,2.88,9.45,4.24,14.2.82,2.95,1.66,5.98,2.43,8.96.71,2.7,1.34,5.89-.37,8.53-3.4,4.61-10.44,1.19-14.45-.6-4.61-2.22-8.5-5.07-12.73-6.7-1.75-.59-4.5-1.46-6.1-.92-.77.37-.85,1.09-.59,1.93,1.23,3.31,4.92,5.09,7.65,7.1,8.29,5.31,15.77,11.76,24.08,17.06,3.31,2.04,7.3,3.97,8.95,7.81,1.58,3.84.45,7.96.13,11.82-1.34,8.61-1.61,20.67-1.86,29.44-.57,19.68-.83,39.33-.91,59.03,0,0-4-.19-4-.19h0Z"/>
      <path class="cls-1" d="m406.96,407.28c-2-12.37-4.09-24.71-6.16-37.07-1.72-11.34-5.13-26.14-4.48-37.5.31-6.37,1.42-12.57,2.38-18.75,2.89-18.08,5.92-37.72,8.63-55.69,1.35-10.92,5.08-26.24,3.68-37.05-.71-6.08-3.66-11.79-4.7-18.12-1.12-6.24-1.3-12.54-2.57-18.59-1.75-9.18-7.76-16.96-11.26-25.6-1.29-3.33-3.21-6.68-2.05-10.49,1.97-5.03,7.73-3.67,10.24.08,5.42,7.52,7.15,18.84,14.74,23.91,0,0-2.95,1.34-2.95,1.34,3.07-9.82,1.43-20.69.43-30.78-.42-4.2-.75-8.41-.75-12.65.12-2.34-.18-4.36.78-6.72.96-2.31,4.01-3.1,5.96-1.43,2.48,1.91,3.14,5.03,3.75,7.9,2.58,12.14.97,25,5.59,36.59.04.02-3.7.11-3.7.12,3.62-7.65,3.78-16.49,3.79-24.91.03-4.32-.1-8.69.2-13.1.33-3.49.34-7.17,2.5-10.22,1.27-2,4.01-3.48,6.4-2.44,3.59,1.52,3.78,5.73,4.09,8.91.48,5.48.13,11.09-.14,16.47-.48,8.59-.8,17.07,1.73,24.86,0,0-3.89.25-3.89.25,1.4-3.85,2.56-7.76,3.63-11.68,1.58-5.68,2.98-12.01,4.23-17.8,0,0,1.22-5.97,1.22-5.97.59-2.94,1.04-7.58,4.87-8.55,2.84-.59,5.28,1.52,6.15,4.04.75,2.23.4,4.59.04,6.75-2.12,12.98-4.08,25.96-5.58,39.04-.43,4.03-.83,8.07-1.07,12.12-.08.96-.07,1.86.27,2.73,1.02,2.28,2.63-.34,3.47-1.51,4.05-5.79,7.89-12.78,15.24-14.75,2.24-.47,4.39-.74,6.62.42,4.53,3.84-2.76,8.36-4.62,11.28-5.9,8.15-7.28,18.81-12.7,27.43-.8,1.37-1.87,2.78-2.84,4.05-2.12,2.59-4.65,4.67-5.49,7.71-.7,2.68-.54,5.53-.71,8.46,0,0-.23,6.09-.23,6.09-2.15,55.35-4.76,115.24-7.92,170.55,0,0-4-.17-4-.17.38-16.26.98-32.51,1.47-48.76,1.38-38.2,3.14-83.99,4.9-121.85,0,0,.28-6.09.28-6.09.2-3.13.09-6.5,1-9.71.84-3.31,3.62-6.35,5.67-8.54,7.76-8.36,9.57-22.68,18.06-31.3,2.02-2.37,4.96-3.53,6.32-6.03,1.06-2.64-3.9-2.56-5.52-2.24-6.09,1.11-9.94,6.45-13.12,11.41,0,0-1.67,2.56-1.67,2.56-.64.79-1.11,1.9-1.99,2.52-2.81,1.75-4.07-2.19-3.86-4.29-.1-12.25.3-24.53,2.06-36.67.6-4.04,1.29-8.08,2.13-12.08.48-2.89,1.67-5.57,1.07-8.3-.29-1.25-1.62-2.68-2.94-2.48-2.58.75-2.78,4.05-3.56,6.56-.74,2.96-2.14,8.89-2.81,11.87-.89,3.97-1.71,7.95-2.41,11.96-.71,4.01-1.33,8.03-1.71,12.12-.1,1.08-1.06,1.88-2.14,1.78-.88-.08-1.53-.72-1.75-1.52-1.67-4.29-2.44-8.84-2.71-13.31-.24-4.47-.06-8.88.22-13.2.33-5.4.67-10.62.44-15.92-.2-1.59.07-5.44-1.8-5.61-4.6,1.45-4.67,17.67-4.79,22.19-.08,8.62.12,17.46-2.39,26.3-.45,1.73-2.97,1.88-3.64.25-1.93-4.07-2.97-8.46-3.58-12.78-1.07-8.37-.65-16.74-1.79-24.99-.31-1.83-.42-3.77-1.45-5.37-1-1.5-1.89-1.74-2.6-.56-.73,1.53-.72,3.87-.9,5.65-.27,4.13-.07,8.29.31,12.42.91,10.58,2.87,20.77,1.76,31.73-.1,1.31-1.64,2.1-2.77,1.44-9.59-4.83-11.54-16.33-16.58-24.69-.52-.82-1.4-1.75-2.31-1.84-.03-.03-.26.09-.46.54-.53,2.39.71,5.22,1.45,7.62,2.88,8.95,8.16,17.15,9.66,26.56,1.11,6.26,1.28,12.55,2.42,18.64,1.05,6.18,3.98,11.89,4.76,18.19,1.46,11.17-2.25,26.41-3.59,37.51-2.72,17.95-5.62,37.7-8.2,55.76-.88,6.2-1.89,12.37-2.11,18.53-.23,6.15.55,12.3,1.61,18.43,3.46,18.44,7.02,36.91,10.63,55.33,0,0-3.94.71-3.94.71h0Z"/>
      <path class="cls-1" d="m305.47,407.13c-2.99-44.37-4.16-88.85-3.09-133.3.1-5.56.44-11.1.05-16.58-.37-5.44-1.6-10.88-4.51-15.53-3.07-4.56-6.1-9.45-8.09-14.64-2.16-5.15-3.98-10.39-6.46-15.28-2.41-4.93-5.94-9.13-9.49-13.4-2.67-3.22-5.39-6.53-7.52-10.18-.82-1.35-1.56-2.93-1.33-4.71.31-2.5,3.19-3.43,5.14-2.07,1.23.75,2.35,2.05,3.33,3.03,0,0,5.84,5.94,5.84,5.94l5.84,5.94c1.14,1.12,2.55,2.28,4.02,2.35.3-.02.4-.08.59-.26,0,0-.51,2.37-.51,2.37-1.92-5.45-4.08-10.77-6.25-16.08-1.06-2.56-3.93-9.41-4.97-11.9-1.49-3.27-3.66-6.49-4.33-10.17-.45-1.77.38-4.38,2.2-5.27,3.86-1.8,6.65,3.12,8.13,5.89,4.59,8.86,8.93,17.94,12.88,27.09,1.31,2.84,2,.06,1.95-1.56,0-1.3-1.11-4.69-1.41-5.99-1.93-6.85-4.08-13.78-6.35-20.51-.9-2.73-1.85-5.39-2.82-8.15-.45-1.51-.79-3.07-.42-4.92.32-2.15,2.83-3.9,5.08-3.1,2.68.94,3.86,3.48,4.94,5.76,1.58,3.27,2.89,6.68,4.13,10.06,2.43,6.79,4.42,13.52,6.93,20.17.49.94,1.89,6.17,3.22,5.12,1.31-1.6.8-4.35.91-6.31,0-4.3-.11-8.59-.25-12.88-.24-5.72-.52-11.44-.98-17.15-.08-1.42-.39-3.22.04-4.72.39-1.72,2.42-3.07,4.18-2.47,1.92.63,3.02,2.33,3.75,4.02,5.82,16.98,4.69,34.91,8.11,52.14.15.68.29,1.82.89,2.17.06.06.47-.25.73-.78.14-.24.27-.58.41-.89,1.88-4.3,2.48-8.86,4.39-13.26,1.37-2.82,3.11-6.16,6.44-7.08,2.57-.54,4.31,2.03,4.41,4.19.2,4.47-.14,8.76-.5,13.19-1.36,14.41-4.18,28.96-10.14,42.23-8.7,18.92-2.4,29.7,3.77,47.87,5.41,16.49,7.7,33.87,10.32,50.84,3.45,22.69,6.88,45.57,6.77,68.62,0,0-4,.02-4,.02-.35-22.81-4.06-45.36-7.6-67.89-1.8-11.32-3.44-22.62-5.91-33.67-1.24-5.52-2.69-10.98-4.46-16.31-3.6-10.97-8.86-22-8.2-34.08.75-11.84,7.75-21.83,10.39-33.14,3.04-10.91,3.8-22.25,5.44-33.48.35-2.92,2.07-8.34-2.6-3.72-4.79,5.07-3.95,13.06-7.68,18.76-1.3,1.57-3.66,1.1-4.57-.62-.46-.75-.69-1.53-.9-2.35-4.23-15.19-4.8-31.37-7.48-46.6-.41-1.93-.63-4-1.38-5.82-1.15-2.28-2.25-2.16-2.27.61-.05,11.81.38,23.63,1.35,35.4.07,1.73-.08,3.56-1.22,5.04-1.1,1.48-3.51,1.68-4.93.56-1.54-1.14-2.14-2.64-2.92-4.13-.98-1.95-1.91-3.95-2.72-5.97-3.87-9.29-6.18-18.92-9.95-28.15-.7-1.61-2.39-3.67-3.25-1.52-.31.95-.21,2.33.08,3.56.7,2.71,1.48,5.52,2.27,8.25,1.57,5.51,3.24,10.98,5.03,16.42.67,2.04,2.07,6.11,2.8,8.12,1.08,2.72,1.05,7.9-2.84,8.15-2.63.04-3.78-2.73-4.77-4.56-.67-1.26-1.36-2.52-2.01-3.8-2.66-5.07-5.17-10.22-7.62-15.39,0,0-1.81-3.89-1.81-3.89-1.17-2.32-2.08-5.46-4.23-6.67-.02,0-.05-.04-.06-.01,0,0-.04-.03-.07.01-.03.01-.09,0-.15.09-.06.07-.13.08-.21.19l-.22.29c-.1.11-.06.14-.12.21-.33.86-.03,2.24.26,3.25.79,2.72,2.1,5.15,3.24,7.83,3.6,9.35,7.59,18.53,12.76,27.13,1.18,2.19-2.03,3.61-3.78,3.47-2.76-.18-4.83-2.03-6.51-3.81,0,0-5.57-6.19-5.57-6.19,0,0-5.57-6.19-5.57-6.19-.62-.68-1.91-2.25-2.67-2.7-1.46-.96-1.49.65-1.13,1.71,1.85,4.3,4.97,8,7.81,11.73,3.46,4.37,6.95,8.89,9.38,13.95,2.48,5.06,4.23,10.36,6.3,15.48,1.98,5.25,4.83,9.8,7.92,14.49,3.01,4.86,4.28,10.57,4.7,16.13.35,27.77-.81,55.52.77,83.28.9,22.17,2.52,44.31,4.92,66.36,0,0-3.98.35-3.98.35h0Z"/>
      <g>
        <path class="cls-3" d="m362.09,406.97c.2-20.49.4-40.97.61-61.46.12-12.41.08-25.5-6.11-36.26-2.07-3.6-4.76-6.8-7.02-10.27-.63-.96-1.22-1.95-1.78-2.95-4.46-7.92-6.98-16.84-9.43-25.63-.91-3.27-1.83-6.58-1.79-9.97.07-5.32,2.5-10.48,2-15.77-.18-1.89-.44-4.37,1.29-5.15.86-.39,1.88-.12,2.72.32,4.23,2.22,5.26,7.73,5.56,12.5.3,4.77.64,10.17,4.32,13.22-.56-.47,2.67-14.72,2.86-16.45.63-5.84.98-11.71,1.57-17.55.28-2.78,3.65-31.27,9.94-23.52,1.26,1.55,1.23,3.74,1.14,5.73-.55,12.53-1.1,25.06-1.65,37.59-.03.69-.04,1.45.4,1.99.71.87,2.22.57,2.94-.3s.86-2.06.98-3.18c1.44-13.28,3.75-26.46,6.93-39.43.48-1.95,1.45-4.31,3.46-4.4,2.3-.1,3.34,2.83,3.49,5.13.44,6.88-.87,13.74-1.91,20.55-1.04,6.77-1.84,13.58-2.39,20.4-.11,1.35.1,3.14,1.42,3.41,1.45.3,2.31-1.56,2.6-3.01,2.11-10.6,4.22-21.19,6.33-31.79.45-2.24,1.66-5.08,3.93-4.79,1.92.24,2.68,2.59,2.87,4.52,1.23,12.64-3.87,25.14-3.53,37.84.03,1.03.22,2.27,1.17,2.68,1.61.71,2.77-1.64,2.98-3.39,1.08-9.1,2.16-18.19,3.24-27.29,1.93-.46,3.91.93,4.79,2.7s.94,3.83.98,5.81c.33,18.5.58,37.48-5.72,54.88-2.5,6.9-6.02,13.55-6.82,20.84-.58,5.31.32,10.66,1.22,15.93,4.36,25.5,8.73,51,13.11,76.5"/>
        <path class="cls-1" d="m360.09,406.95c.68-20.81,1.2-43.23,1.59-64.1.18-11.49-.09-23.66-6.08-33.81-2.77-4.56-6.3-8.67-8.79-13.42-5.03-9.55-7.82-20.03-10.37-30.45-1.64-6.31,1.39-13.05,1.18-19.13-.07-1.71-.57-3.31-.23-5.08,1.07-4.68,6.34-3.03,8.65-.3,3.26,3.65,3.76,8.47,4.13,13.02.36,3.7.78,7.86,3.54,10.33.91.75,1.03,2.14.18,2.99-1.38,1.37-3.62.15-3.47-1.71.13-1.52.84-3.72,1.2-5.22,0,0,1.36-5.13,1.36-5.13.5-2.13,1.15-4.19,1.46-6.34,1.1-8.29,1.36-16.63,2.7-24.95.92-5.3,1.58-10.72,4.14-15.61,0,0,.4-.63.4-.63.15-.21.33-.42.5-.62,1.45-1.69,3.63-1.67,5.15-.04,2.96,2.87,1.83,7.46,1.93,11.1-.3,10.55-.67,21.09-1.5,31.61,0,.86-.31,2.34-.1,3.08.02.04.01.07.18.11,1.31,0,1.48-1.47,1.68-2.69,1.73-12.13,3.63-24.52,5.96-36.55.35-1.57.63-3.79,1.25-5.38.75-2.38,3.43-4.6,6.19-3.27,6.61,3.22,2.66,21.61,1.98,27.39-.87,5.85-2.18,14.81-2.99,20.59-.09.65.11,1.32.08,1.28-.07,0-.07,0-.1.05.93-.28,1.42-3.43,1.73-4.42.88-3.41,1.69-6.83,2.46-10.27,1.11-4.97,2.12-10.49,2.97-15.54.5-2.73.5-5.87,2.58-8.08.85-.93,2.42-1.39,3.68-.99,5.17,1.69,4,12.1,3.84,16.41-.83,8.99-3.4,17.17-3.83,25.91,0,.75-.26,2.21.23,2.76.02,0,0,.03.03.03.66-.25,1.14-1.44,1.3-2.17.18-.82.9-5.54,1.06-6.46.52-3.48,1.04-6.96,1.47-10.45.47-3.48,1.03-6.96-.18-10.64.3-2.7,4.24-2.05,5.73-1.05,3.26,1.74,4.09,6.31,4,9.28.27,15.36.52,30.92-2.91,46.03-.86,3.8-2.02,7.54-3.37,11.21-2.63,6.99-6.14,13.73-6.41,21.16-.26,6.43,1.87,15.78,2.87,22.23,2.51,14.62,9.02,52.61,11.59,67.63,0,0-3.94.68-3.94.68-2.62-15.29-9.08-52.94-11.59-67.64-1.07-7.02-3.22-15.95-2.92-23.07.58-11.85,7.71-21.69,9.88-33.1,2.5-11.03,2.98-22.32,2.95-33.65-.01-3.79-.07-7.6-.14-11.4-.1-2.54-.12-4.64-2.03-5.92-.49-.29-.93-.35-1.27-.27l1.52-1.71c-2.06,3.3-2.34,6.84-2.7,10.36-.56,5.04-1.05,10.67-1.42,15.76-.13,2.12-.48,4.69-2.82,5.6-2.43.7-3.87-1.83-3.88-3.83-.16-2.25-.17-4.55-.04-6.8.4-7.22,1.97-14.13,2.81-20.92.22-2.05,2.09-15.44-1.85-13.19-1.68,1.43-1.97,4.53-2.56,6.62-1.17,5-2.32,10.47-3.22,15.49-.6,3.46-1.17,6.94-1.67,10.42-.35,1.89-.26,3.97-1.51,5.68-.82,1.36-3.21,1.85-4.49.6-1.85-1.79-1.4-4.18-1.38-6.42.18-9.67,1.91-19.37,3.42-28.85.38-3.97,1.25-8.23.27-12.09-.68-1.96-1.87-1.45-2.62.21-.55,1.11-1.1,3.5-1.49,4.79-2.33,8.45-4.09,17.05-5.3,25.73-.42,3-.84,7.4-1.09,10.46-.08,1.41-.49,3.51-2.03,4.38-1.21.76-3.04.76-4.01-.55-.81-1.14-.62-2.25-.64-3.36.08-7.47.31-14.94.72-22.4.16-3.51.38-7.02.58-10.53-.07-2.93,1.24-6.93-.75-9.2-.11-.15-.22-.24-.33-.31,0,0-.16-.14-.16-.14-.05-.02-.09-.03-.13-.06-.18-.12-.25-.06-.4-.07-1.76,1.09-2.53,3.83-3.29,5.86-3.75,11.64-4.11,24.26-5.14,36.37-.65,4.77-1.87,10.26-1.74,15.02.02-.39-.3-.94-.63-1.18,0-.01-2.55,3.13-2.56,3.07-5.83-4.85-4.31-12.73-5.42-19.24-.53-2.81-1.56-5.41-4-6.82-.56-.28-1.07-.5-1.56-.2-1.01.95-.45,3.73-.56,5.2-.18,4.55-1.87,8.57-2.33,12.72-.51,4.21.74,8.33,1.89,12.37,2.31,8.17,4.71,16.41,8.79,23.88,2.52,4.72,6.09,8.73,8.91,13.28,1.68,2.8,3,5.82,3.97,8.94,2.54,8.3,2.87,17.06,2.91,25.65.01,6.35.01,19.29.02,25.65.1,12.34.13,26.18.31,38.48,0,0-4-.04-4-.04h0Z"/>
      </g>
      <path class="cls-1" d="m439.93,407.1c-.47-12.51,2.79-24.47,5.17-36.54,2.57-12.91,8.37-41.32,10.75-53.75,1.45-8.66,4.42-18.11,3.42-26.9-.82-5.99-2.13-12.18-1.19-18.27,1.25-9.04,3.71-17.91,3.24-27.1-.13-3.74-.21-7.54-.77-11.24-.41-2.27-1.01-4.55-1.11-6.94-.03-.95.06-2.06.62-2.91,2.03-3.25,6.53-2.31,7.83,1.04,1.27,3.36.8,6.12,1.46,9.38.71,4.25,1.71,8.54,3.17,12.59.09.18.16.17-.06.12-.18-.05-.41.15-.35.13,3.19-9.13,2.99-19.16,5.21-28.58.37-1.51.75-3.11,1.29-4.58,1.01-2.96,4.53-4.69,6.56-1.45.73,1.2.86,2.64,1.05,3.87,1.46,10.3-2.47,21.5.05,31.38.09.1-3.47-.68-3.47-.65,5.82-4.92,8.3-12.71,10.34-19.87.95-3.24,2.29-7.96,3.47-11.1,1.15-2.87,2.23-6.78,5.77-7.49,2.19-.54,4.6,1.04,4.86,3.32.3,1.65-.12,3.27-.31,4.85-1.57,9.57-5.74,18.45-8.36,27.65-.36,1.49-.94,3.41-1.1,4.89-.02.05-.02.02-.15.02.55.09,1.6-.82,2.06-1.48,4.53-6.24,8.77-12.67,12.71-19.29,1.12-1.81,2.09-3.8,4.36-4.73,4.98-1.46,6.27,4.09,5.05,7.84-3.49,10.12-9.33,19.26-13.96,28.69-1.66,3.41-3.21,6.87-4.36,10.49-.48,1.58-1.3,3.48-.41,4.91,1,1.38,3.28,1.06,4.86.95,3.78-.35,7.38-1.85,10.99-3.16,3.87-1.38,13.21-4.88,15.86-.3,1.19,3.15-2.98,4.76-4.79,6.24-3.17,2.2-6.31,4.44-9.5,6.61-6.34,4.38-12.85,8.51-19.44,12.5-5.32,3.09-7.38,5.18-7.76,11.55-3.6,32.52-7.59,65.01-12.21,97.42,0,0-3.97-.46-3.97-.46,2.95-32.6,6.54-65.13,10.52-97.61.59-7.91,3.81-11.84,10.6-15.57,6.61-3.97,13.29-7.8,20.12-11.37,3.4-1.81,6.85-3.55,10.27-5.33l2.57-1.33c1.33-.67,2.82-1.48,1.39-2.73-.62-.45-1.45-.76-2.35-.8-3.76-.46-7.54.58-11.09,1.82-3.9,1.17-13.82,5.91-17.12,2.41-1.48-1.86-.8-4.23-.44-6.23,2.2-11.5,7.68-22.05,13.12-32.28,0,0,2.64-5.06,2.64-5.06.82-1.62,1.62-3.02,1.76-4.73.13-1.08-.24-2.41-1.56-2.11-1.47.44-2.56,2.1-3.49,3.45-4.41,6.32-8.53,12.82-12.35,19.52-.58.97-1.32,1.87-2.44,2.54-1.56,1.04-3.89.4-4.43-1.58-.24-.85-.16-1.52-.13-2.05.12-1.44.35-3.03.59-4.44,1.36-7.7,4.56-14.84,6.96-22.14.72-2.23,1.39-4.48,1.89-6.75.32-1.38.93-3.69-1.04-3.48-4.68.24-10.1,22.59-12.08,27.35-1.28,3.69-2.84,7.31-4.8,10.99-.7,1.43-2.97,1.18-3.37-.33-1.1-3.26-1.45-6.72-1.39-10.03.15-8.32,2.79-16.38,1.74-24.61-.4-2.09-1.37-.94-2.03.3-.26.5-.55,1.47-.77,2-3.43,9.76-3.31,20.23-5.16,30.34-.44,2.63-3.34,3.45-4.85,1.23-.96-1.49-1.31-3.02-1.91-4.64-.96-2.98-1.62-6.05-2.03-9.15-.21-1.55-.36-3.11-.45-4.67-.14-2.16-.02-5.46-2.42-5.46-.56.09-1.17.59-1.27,1.22-.42,3.16.74,6.71.74,9.93.16,6.12.01,12.27-.74,18.35-1.1,8.98-4.14,17.97-2.98,27.03.85,5.99,2.3,12.17,1.35,18.28-3.47,20.98-9.14,50.78-12.73,72.01-1.87,11.83-4.77,23.85-3.71,35.79,0,0-3.99.27-3.99.27h0Z"/>
      <path class="cls-1" d="m257.51,407.19c-2.06-25.34-4.34-50.63-9.11-75.58-1.02-4.86-1.74-9.99-3.7-14.54-2.03-4.55-5.98-8.13-8.46-12.52-5.25-8.7-8.41-18.73-12.75-27.87-.99-2.32-3.56-8.29-4.51-10.54-.47-1.18-1.16-2.48-1.45-3.81-.87-3.42,2.06-5.75,5.36-4.87,2.21.54,4.17,1.93,5.6,3.61,2.54,3.04,3.95,6.96,5.74,10.23,1.04,1.77,2.25,3.91,4.03,4.87.19.05.22.04.35-.05.14-.12.3-.57.36-1.06-.19-8.69-1.23-17.66-2.35-26.33-.45-4.6-5.49-30.59,1.77-29.92,3.72.79,4.56,5.13,5.19,8.18,0,0,1.62,7.46,1.62,7.46,1.35,6.16,2.71,12.47,3.87,18.68.45,1.54.4,5.92,2.61,5.35.11-.06.28-.47.39-1.09,1-4.91,1.51-9.95,1.84-15.02.43-6.34.74-12.82,1.84-19.15.27-1.61.89-3.9,2.51-5.13,3.32-2.43,6.87-.4,7.21,3.53,1.73,10.27-.06,20.6-.66,30.75-.09,1.75-.21,3.76-.15,5.46.04.47.14.7.19.77.01.05.12.14.43.12,1.37-.25,1.62-1.52,1.98-3.1,1.41-7.25,3.23-15.24,4.94-22.47.31-1.15.55-2.74,1.06-3.91.72-1.51,1.49-2.82,3.23-3.6,2.32-.97,4.58,1.13,4.78,3.26,1.35,12.19-3.9,24.09-4.9,35.83.65-.11,1.37-1.4,1.8-2.11,3.53-5.87,5.88-12.71,8.39-19.14.78-3.11,3.57-4.16,6.03-1.77,1.33,1.52,1.46,3.23,1.77,4.57-.01.23-.04.5-.12.71-2.35,6.42-4.36,12.96-5.99,19.6-2.62,10.01-3.56,20.34-5.68,30.51-2.91,12.82-6.89,15.31-2.81,29.4,5.88,22.96,15.41,56.83,21.77,79.93,0,0-3.86,1.07-3.86,1.07-3.97-14.44-12.78-46.06-16.53-59.96,0,0-5.28-20.11-5.28-20.11-1.3-5.01-2.57-10.84-1.44-16.19,1.1-5.18,3.24-9.85,4.24-15,2.09-10.12,3.06-20.52,5.7-30.61,1.66-6.78,3.71-13.47,6.12-20.03,0,0-.12.71-.12.71.26-1.19.38-2.32.09-2.93-.24-.52-.98-1.08-1.5-.6-.67.69-1.23,2.12-1.73,3.07-2.71,5.8-4.45,11.88-7.26,17.73-.75,1.39-1.14,2.85-3.04,3.52-1.91.54-3.27-1.34-3.27-2.99-.21-8.05,1.66-16.16,2.98-23.91.43-2.84,1.02-6.31,1.14-9.17.07-.84.14-1.83-.07-2.37-.14-.12.02-.11-.18-.13-.2.02-.6.29-.93.63-1.21,1.22-1.56,2.82-2.13,4.61-.76,2.41-1.39,4.87-1.99,7.33-1.12,4.94-2.04,9.91-2.61,14.96-.19,1.28-.38,2.87-1.62,4.29-2.49,2.65-6.5,1.5-6.88-2.08-1.22-12.1,1.76-24.18.61-36.16-.11-.79-.09-1.41-.58-1.75-.49-.17-1.34.1-1.71.61-1.26,1.58-1.54,4.46-2.03,6.52-1.92,9.98-1.71,20.24-3.17,30.36-.18,3.48-4.02,4.54-6.31,1.92-1.41-1.74-1.54-3.96-2.1-5.98-1.42-6.16-2.7-12.48-3.93-18.67,0,0-1.5-7.48-1.5-7.48-.39-1.77-.47-3.51-1.35-4.94-.26-.4-.87-.99-1.23-1.17-.02-.03.07.02.08-.03.03.03.07-.05.05-.02-.08.03-.36.49-.51.99-.94,3.47-.78,7.31-.71,10.95.02,4.36,1.04,10.7,1.55,15.1,0,0,1.78,15.18,1.78,15.18,0,0,.93,7.59.93,7.59.15,1.24.39,2.71.33,4.03.01,1.99-1.58,4.16-3.9,3.63-1.8-.45-2.67-1.53-3.81-2.7-3.46-3.86-4.78-9.09-7.9-12.98-1.07-1.23-2.31-2.13-3.81-2.59-.58-.12-1.2-.22-1.5.16-.3,1.23.65,2.78,1.12,4.25.86,2.25,3.17,8.36,4.05,10.69,3.41,9.35,6.94,19.32,11.99,27.86,2.53,4.48,6.52,7.86,8.7,12.65,1.95,4.26,3.02,10.38,4.07,14.91,5.37,24.93,8.06,50.37,10.95,75.63,0,0-3.98.39-3.98.39h0Z"/>
    </g>
  </g>
  <g>
    <g>
      <g>
        <path class="cls-4" d="m189.76,348.44h20.22l18.76,98.03h-24.33l-3.66-23.45h-28.72l-12.6,24.62-23.15-3.96,53.49-95.25Zm8.21,56.86c-.78-4.98-1.46-9.84-2.05-14.58-.59-4.74-1.12-8.77-1.61-12.09-1.76,3.42-3.81,7.47-6.15,12.16-2.35,4.69-4.74,9.52-7.18,14.51h17Z"/>
        <path class="cls-3" d="m209.98,348.44l18.76,98.03h-24.33l-3.66-23.45h-28.72l-12.6,24.62-23.15-3.96,53.49-95.25h20.22m-29.01,56.86h17c-.78-4.98-1.46-9.84-2.05-14.58-.59-4.74-1.12-8.77-1.61-12.09-1.76,3.42-3.81,7.47-6.15,12.16-2.35,4.69-4.74,9.52-7.18,14.51m36.78-66.24h-33.48l-2.69,4.79-53.49,95.25-6.52,11.61,13.12,2.24,23.15,3.96,6.8,1.16,3.14-6.14,9.99-19.51h14.95l2.42,15.51,1.24,7.94h43.71l-2.13-11.15-18.76-98.03-1.46-7.62h0Z"/>
      </g>
      <g>
        <path class="cls-4" d="m284.72,434.8c-2.44,4.1-5.49,7.3-9.16,9.6-3.66,2.29-7.84,3.44-12.53,3.44-9.28,0-16.19-2.88-20.73-8.65-4.54-5.76-6.81-13.97-6.81-24.62,0-8.69,1.1-17.14,3.3-25.35,2.2-8.21,5.57-15.48,10.11-21.83,4.54-6.35,10.33-11.45,17.36-15.31,7.03-3.86,15.39-5.79,25.06-5.79,4.59,0,8.43.49,11.5,1.47,3.08.98,5.62,2.27,7.62,3.88,2,1.61,3.54,3.54,4.62,5.79,1.07,2.25,1.91,4.59,2.49,7.03l-18.61,8.5c-.39-1.07-.86-2.12-1.39-3.15-.54-1.03-1.25-1.93-2.12-2.71-.88-.78-2.03-1.42-3.44-1.91-1.42-.49-3.2-.73-5.35-.73-4.59,0-8.5,1.56-11.72,4.69-3.22,3.13-5.89,7.06-7.99,11.8-2.1,4.74-3.64,9.89-4.62,15.46-.98,5.57-1.47,10.75-1.47,15.53,0,5.08.78,9.31,2.35,12.68,1.56,3.37,4.15,5.06,7.77,5.06,1.56,0,3.17-.44,4.84-1.32,1.66-.88,3.25-2.1,4.76-3.66,1.51-1.56,2.86-3.42,4.03-5.57,1.17-2.15,2-4.49,2.49-7.03l3.37-17.29h23.15l-10.4,54.22c-.78,4.1-2.22,7.96-4.32,11.58-2.1,3.61-4.71,6.76-7.84,9.45-3.13,2.69-6.72,4.79-10.77,6.3-4.05,1.51-8.48,2.27-13.26,2.27-2.93,0-5.96-.27-9.09-.81-3.13-.54-6.13-1.25-9.01-2.12-2.88-.88-5.62-1.83-8.21-2.86-2.59-1.03-4.81-2.03-6.67-3l8.21-18.02c6.35,2.83,11.43,4.81,15.24,5.94,3.81,1.12,7.33,1.69,10.55,1.69,3.42,0,6.3-.9,8.65-2.71,2.34-1.81,3.86-4.13,4.54-6.96l3.52-14.95Z"/>
        <path class="cls-3" d="m291.31,346.29c4.59,0,8.43.49,11.5,1.47,3.08.98,5.62,2.27,7.62,3.88,2,1.61,3.54,3.54,4.62,5.79,1.07,2.25,1.91,4.59,2.49,7.03l-18.61,8.5c-.39-1.07-.86-2.12-1.39-3.15-.54-1.03-1.25-1.93-2.12-2.71-.88-.78-2.03-1.42-3.44-1.91-1.42-.49-3.2-.73-5.35-.73-4.59,0-8.5,1.56-11.72,4.69-3.22,3.13-5.89,7.06-7.99,11.8-2.1,4.74-3.64,9.89-4.62,15.46-.98,5.57-1.47,10.75-1.47,15.53,0,5.08.78,9.31,2.35,12.68,1.56,3.37,4.15,5.06,7.77,5.06,1.56,0,3.17-.44,4.84-1.32,1.66-.88,3.25-2.1,4.76-3.66,1.51-1.56,2.86-3.42,4.03-5.57,1.17-2.15,2-4.49,2.49-7.03l3.37-17.29h23.15l-10.4,54.22c-.78,4.1-2.22,7.96-4.32,11.58-2.1,3.61-4.71,6.76-7.84,9.45-3.13,2.69-6.72,4.79-10.77,6.3-4.05,1.51-8.48,2.27-13.26,2.27-2.93,0-5.96-.27-9.09-.81-3.13-.54-6.13-1.25-9.01-2.12-2.88-.88-5.62-1.83-8.21-2.86-2.59-1.03-4.81-2.03-6.67-3l8.21-18.02c6.35,2.83,11.43,4.81,15.24,5.94,3.81,1.12,7.33,1.69,10.55,1.69,3.42,0,6.3-.9,8.65-2.71,2.34-1.81,3.86-4.13,4.54-6.96l3.52-14.95c-2.44,4.1-5.49,7.3-9.16,9.6-3.66,2.29-7.84,3.44-12.53,3.44-9.28,0-16.19-2.88-20.73-8.65-4.54-5.76-6.81-13.97-6.81-24.62,0-8.69,1.1-17.14,3.3-25.35,2.2-8.21,5.57-15.48,10.11-21.83,4.54-6.35,10.33-11.45,17.36-15.31,7.03-3.86,15.39-5.79,25.06-5.79m0-9.39c-11.22,0-21.17,2.34-29.57,6.94-8.25,4.53-15.14,10.61-20.48,18.08-5.18,7.24-9.06,15.61-11.54,24.87-2.4,8.96-3.62,18.3-3.62,27.78,0,12.76,2.97,23,8.83,30.43.02.02.03.04.05.06l-1.29,2.84-8.21,18.02-3.67,8.07,7.85,4.13c2.15,1.13,4.7,2.28,7.58,3.42,2.81,1.11,5.81,2.16,8.92,3.11,3.24.99,6.66,1.8,10.16,2.4,3.65.63,7.24.94,10.68.94,5.89,0,11.45-.96,16.54-2.86,5.08-1.9,9.65-4.58,13.6-7.97,3.91-3.36,7.22-7.35,9.84-11.85,2.62-4.52,4.45-9.41,5.43-14.54l10.4-54.21,2.14-11.16h-30.67l8.56-3.91,18.61-8.5,7.03-3.21-1.8-7.52c-.74-3.07-1.8-6.06-3.15-8.89-1.69-3.52-4.11-6.56-7.2-9.05-2.91-2.34-6.49-4.19-10.67-5.52-4.05-1.28-8.74-1.91-14.34-1.91h0Zm-19.89,83.13c-.8-2.05-1.21-4.77-1.21-8.1,0-4.23.45-8.91,1.32-13.91.84-4.79,2.17-9.26,3.95-13.28,1.6-3.61,3.6-6.59,5.94-8.87,1.47-1.43,3.03-2.04,5.19-2.04,1.63,0,2.27.21,2.29.22.14.05.25.09.32.13.33.64.63,1.31.87,1.98l3.37,9.23h-10.78l-1.48,7.59-3.37,17.29c-.31,1.62-.81,3.03-1.52,4.33-.76,1.4-1.61,2.59-2.53,3.53-.8.83-1.6,1.46-2.37,1.88h0Z"/>
      </g>
      <g>
        <path class="cls-4" d="m373.72,346.68c12.02,0,20.71,2.91,26.08,8.72,5.37,5.81,8.06,14.04,8.06,24.69,0,8.7-1.1,17.14-3.3,25.35-2.2,8.21-5.55,15.51-10.04,21.91-4.49,6.4-10.16,11.55-17,15.46-6.84,3.91-14.9,5.86-24.18,5.86-12.02,0-20.69-2.98-26.01-8.94-5.32-5.96-7.99-14.21-7.99-24.76,0-8.69,1.1-17.14,3.3-25.35,2.2-8.21,5.52-15.48,9.96-21.83,4.44-6.35,10.09-11.45,16.92-15.31,6.84-3.86,14.9-5.79,24.18-5.79Zm-4.54,18.17c-4.2,0-7.84,1.56-10.92,4.69-3.08,3.13-5.59,7.03-7.55,11.72-1.96,4.69-3.42,9.82-4.4,15.39-.98,5.57-1.46,10.8-1.46,15.68,0,2.54.22,4.91.66,7.11.44,2.2,1.17,4.13,2.2,5.79,1.03,1.66,2.39,2.96,4.1,3.88,1.71.93,3.83,1.39,6.37,1.39,4.2,0,7.84-1.59,10.92-4.76,3.08-3.17,5.59-7.16,7.55-11.94,1.95-4.79,3.42-9.99,4.4-15.61.98-5.62,1.47-10.87,1.47-15.75,0-2.44-.22-4.74-.66-6.89-.44-2.15-1.17-4.03-2.2-5.64-1.03-1.61-2.4-2.86-4.1-3.74-1.71-.88-3.84-1.32-6.37-1.32Z"/>
        <path class="cls-3" d="m373.72,346.68c12.02,0,20.71,2.91,26.08,8.72,5.37,5.81,8.06,14.04,8.06,24.69,0,8.7-1.1,17.14-3.3,25.35-2.2,8.21-5.55,15.51-10.04,21.91-4.49,6.4-10.16,11.55-17,15.46-6.84,3.91-14.9,5.86-24.18,5.86-12.01,0-20.69-2.98-26.01-8.94-5.32-5.96-7.99-14.21-7.99-24.76,0-8.69,1.1-17.14,3.3-25.35,2.2-8.21,5.52-15.48,9.96-21.83,4.44-6.35,10.09-11.45,16.92-15.31,6.84-3.86,14.9-5.79,24.18-5.79m-15.53,83.82c4.2,0,7.84-1.59,10.92-4.76,3.08-3.17,5.59-7.16,7.55-11.94,1.95-4.79,3.42-9.99,4.4-15.61.98-5.62,1.47-10.87,1.47-15.75,0-2.44-.22-4.74-.66-6.89-.44-2.15-1.17-4.03-2.2-5.64-1.03-1.61-2.4-2.86-4.1-3.74-1.71-.88-3.84-1.32-6.37-1.32-4.2,0-7.84,1.56-10.92,4.69-3.08,3.13-5.59,7.03-7.55,11.72-1.96,4.69-3.42,9.82-4.4,15.39-.98,5.57-1.46,10.8-1.46,15.68,0,2.54.22,4.91.66,7.11.44,2.2,1.17,4.13,2.2,5.79,1.03,1.66,2.39,2.96,4.1,3.88,1.71.93,3.83,1.39,6.37,1.39m15.53-93.21c-10.87,0-20.56,2.36-28.79,7-8.04,4.54-14.77,10.63-20,18.11-5.05,7.22-8.87,15.56-11.34,24.79-2.4,8.96-3.62,18.3-3.62,27.78,0,12.88,3.49,23.32,10.37,31.02,7.15,8.01,18.26,12.07,33.01,12.07,10.89,0,20.59-2.39,28.83-7.1,8.01-4.58,14.75-10.71,20.02-18.22,5.11-7.27,8.95-15.64,11.42-24.87,2.4-8.96,3.62-18.31,3.62-27.78,0-13.03-3.55-23.48-10.55-31.06-7.2-7.79-18.3-11.74-32.98-11.74h0Zm-15.53,83.82c-1.4,0-1.88-.25-1.89-.25-.28-.15-.44-.3-.6-.57-.43-.7-.76-1.61-.98-2.7-.32-1.58-.48-3.35-.48-5.27,0-4.32.45-9.05,1.32-14.06.85-4.86,2.13-9.37,3.81-13.4,1.48-3.55,3.35-6.5,5.57-8.75,1.32-1.34,2.54-1.89,4.23-1.89,1.52,0,2.06.27,2.09.28.22.12.34.22.47.43.4.63.71,1.47.92,2.48.31,1.52.47,3.21.47,5,0,4.31-.45,9.07-1.33,14.15-.86,4.93-2.15,9.53-3.84,13.66-1.49,3.65-3.37,6.67-5.59,8.96-1.32,1.36-2.52,1.91-4.18,1.91h0Z"/>
      </g>
      <g>
        <path class="cls-4" d="m426.98,347.85l16.27,1.03c1.95-.39,4.13-.71,6.52-.95,2.39-.24,4.96-.37,7.69-.37,4.3,0,8.28.39,11.94,1.17,3.66.78,6.86,2.05,9.6,3.81,2.73,1.76,4.86,4.1,6.37,7.03,1.51,2.93,2.27,6.55,2.27,10.84s-.59,8.16-1.76,11.58c-1.17,3.42-2.81,6.47-4.91,9.16-2.1,2.69-4.62,5.03-7.55,7.03-2.93,2-6.11,3.64-9.52,4.91,1.17,3.52,2.86,7.38,5.06,11.58,2.2,4.2,4.69,8.43,7.47,12.68,2.78,4.25,5.71,8.43,8.79,12.53,3.08,4.1,6.08,7.91,9.01,11.43l-19.49,10.26c-4.4-5.47-8.18-10.53-11.36-15.17-3.18-4.64-5.96-9.11-8.35-13.41-2.4-4.3-4.49-8.62-6.3-12.97-1.81-4.35-3.59-9.01-5.35-13.99-.59,0-1.22-.02-1.91-.07-.68-.05-1.32-.07-1.9-.07l-7.91,40.59h-23.74l19.05-98.62Zm25.5,15.53h-2.49c-.78,0-1.56.1-2.35.29l-4.84,25.35h2.05c5.47,0,9.82-1.37,13.04-4.1,3.22-2.73,4.84-6.59,4.84-11.58,0-3.52-.93-6.06-2.78-7.62-1.86-1.56-4.35-2.34-7.47-2.34Z"/>
        <path class="cls-3" d="m457.46,347.56c4.3,0,8.28.39,11.94,1.17,3.66.78,6.86,2.05,9.6,3.81,2.73,1.76,4.86,4.1,6.37,7.03,1.51,2.93,2.27,6.55,2.27,10.84s-.59,8.16-1.76,11.58c-1.17,3.42-2.81,6.47-4.91,9.16-2.1,2.69-4.62,5.03-7.55,7.03-2.93,2-6.11,3.64-9.52,4.91,1.17,3.52,2.86,7.38,5.06,11.58,2.2,4.2,4.69,8.43,7.47,12.67,2.78,4.25,5.71,8.43,8.79,12.53,3.08,4.1,6.08,7.91,9.01,11.43l-19.49,10.26c-4.4-5.47-8.18-10.53-11.36-15.17-3.18-4.64-5.96-9.11-8.35-13.41-2.4-4.3-4.49-8.62-6.3-12.97-1.81-4.35-3.59-9.01-5.35-13.99-.59,0-1.22-.02-1.91-.07-.68-.05-1.32-.07-1.9-.07l-7.91,40.59h-23.74l19.05-98.62,16.27,1.03c1.95-.39,4.13-.71,6.52-.95,2.39-.24,4.96-.37,7.69-.37m-14.65,41.47h2.05c5.47,0,9.82-1.37,13.04-4.1,3.22-2.73,4.84-6.59,4.84-11.58,0-3.52-.93-6.06-2.78-7.62-1.86-1.56-4.35-2.34-7.47-2.34h-2.49c-.78,0-1.56.1-2.35.29l-4.84,25.35m-23.48-51.07l-1.57,8.11-19.05,98.62-2.16,11.17h42.85l1.48-7.59,3.13-16.05c.9,1.79,1.84,3.58,2.83,5.34,2.52,4.53,5.48,9.29,8.81,14.14,3.28,4.8,7.25,10.09,11.78,15.74l4.84,6.03,6.85-3.6,19.49-10.26,10.27-5.4-7.43-8.91c-2.81-3.38-5.75-7.09-8.71-11.05-2.95-3.93-5.79-7.98-8.45-12.04-2.61-3.98-4.96-7.97-7.01-11.88-.47-.89-.91-1.76-1.32-2.62.94-.56,1.87-1.15,2.77-1.77,3.71-2.53,6.95-5.56,9.64-9,2.74-3.5,4.89-7.51,6.4-11.9,1.5-4.38,2.27-9.3,2.27-14.62,0-5.79-1.12-10.89-3.32-15.15-2.27-4.4-5.52-7.97-9.63-10.62-3.68-2.37-7.96-4.08-12.72-5.1-4.3-.92-8.97-1.38-13.9-1.38-3.02,0-5.93.14-8.64.41-2.19.22-4.25.51-6.16.85l-15.09-.95-8.24-.52h0Z"/>
      </g>
      <g>
        <path class="cls-4" d="m526.7,348.44h20.22l18.76,98.03h-24.33l-3.66-23.45h-28.72l-10.1,19.97-13.91-20.21,41.75-74.34Zm8.21,56.86c-.78-4.98-1.46-9.84-2.05-14.58-.59-4.74-1.12-8.77-1.61-12.09-1.76,3.42-3.81,7.47-6.15,12.16-2.35,4.69-4.74,9.52-7.18,14.51h17Z"/>
        <path class="cls-3" d="m546.92,348.44l18.76,98.03h-24.33l-3.66-23.45h-28.72l-10.1,19.97-13.91-20.21,41.75-74.34h20.22m-29.01,56.86h17c-.78-4.98-1.46-9.84-2.05-14.58-.59-4.74-1.12-8.77-1.61-12.09-1.76,3.42-3.81,7.47-6.15,12.16-2.35,4.69-4.74,9.52-7.18,14.51m36.78-66.24h-33.48l-2.69,4.79-41.75,74.34-2.86,5.1,3.32,4.82,13.91,20.21,8.97,13.03,7.14-14.11,7.5-14.82h14.91l2.42,15.51,1.24,7.94h43.71l-2.13-11.15-18.76-98.03-1.46-7.62h0Z"/>
      </g>
    </g>
    <path class="cls-1" d="m563.41,470.16c-.15,1.12-13.21,1.68-15.48,1.73-62.47,1.39-125.17.84-187.73,2.85-53.2,1.71-42.04-6.6-40.82-6.6,76.53-.01,153.08,2.28,229.59-.34"/>
  </g>
</svg>