<svg height="210" viewBox="0 0 275 191" fill="none" xmlns="http://www.w3.org/2000/svg">
<path fill-rule="evenodd" clip-rule="evenodd" d="M113.652 117.173C113.652 115.961 113.595 114.745 113.668 113.536C113.741 112.342 114.116 111.942 115.277 111.826C116.652 111.687 118.04 111.59 119.419 111.619C120.488 111.64 120.724 111.988 120.8 113.07C121.091 117.25 121.381 121.431 121.664 125.612C121.697 126.106 121.713 126.604 121.684 127.098C121.648 127.715 121.317 128.193 120.687 128.243C119.368 128.346 118.03 128.501 116.724 128.377C115.382 128.249 114.91 127.537 114.639 126.202C114.031 123.22 113.554 120.23 113.652 117.173" fill="#99C656"/>
<path fill-rule="evenodd" clip-rule="evenodd" d="M61.8516 102.397C61.8516 104.287 61.8714 106.178 61.841 108.067C61.8303 108.73 61.7565 109.406 61.6045 110.049C61.3347 111.192 60.8174 111.581 59.6581 111.605C59.0134 111.619 58.3633 111.623 57.7229 111.557C56.5506 111.435 56.2427 111.156 56.0613 109.919C55.7234 107.612 55.4262 105.297 55.1409 102.982C54.9102 101.109 54.7225 99.2298 54.5155 97.353C54.3157 95.5406 54.6221 95.0279 56.3219 94.6449C57.3696 94.4085 58.4415 94.2558 59.5109 94.1596C61.1243 94.015 61.5852 94.4114 61.6291 96.0653C61.6851 98.1739 61.6426 100.286 61.6426 102.396C61.7121 102.396 61.7821 102.396 61.8516 102.397" fill="#99C656"/>
<path fill-rule="evenodd" clip-rule="evenodd" d="M131.777 88.7661C131.777 90.8717 131.799 92.8571 131.769 94.8415C131.747 96.3519 131.491 96.5983 130.015 96.7577C129.902 96.7699 129.789 96.7714 129.676 96.778C126.367 96.9674 126.143 96.6548 125.436 93.4568C124.533 89.3719 124.651 85.2296 124.4 81.106C124.325 79.8628 124.59 79.6526 125.799 79.4688C127.025 79.2825 128.242 79.0285 129.459 78.7836C130.961 78.4807 131.314 78.7077 131.394 80.2207C131.545 83.1077 131.655 85.9967 131.777 88.7661" fill="#99C656"/>
<path fill-rule="evenodd" clip-rule="evenodd" d="M98.8301 111.237C98.8301 113.781 98.8537 116.009 98.8212 118.236C98.802 119.559 98.7186 119.676 97.4654 119.955C96.503 120.169 95.513 120.316 94.5304 120.352C93.458 120.392 93.0306 119.967 92.8255 118.897C92.0509 114.859 91.5633 110.785 91.4455 106.666C91.3873 104.628 92.1249 103.551 94.0211 103.123C94.9267 102.919 95.8793 102.862 96.8091 102.875C97.9786 102.89 98.3814 103.318 98.4613 104.537C98.6141 106.873 98.7211 109.213 98.8301 111.237" fill="#99C656"/>
<path fill-rule="evenodd" clip-rule="evenodd" d="M34.2827 49.379C34.2827 51.9229 34.3064 54.1509 34.2738 56.3779C34.2546 57.7008 34.1713 57.8181 32.918 58.0971C31.9556 58.3111 30.9656 58.4575 29.983 58.4938C28.9106 58.5333 28.4832 58.1088 28.2781 57.0389C27.5035 53.0006 27.0159 48.9265 26.8981 44.8078C26.8399 42.7702 27.5775 41.6926 29.4737 41.2651C30.3794 41.0608 31.3319 41.004 32.2618 41.0163C33.4312 41.0316 33.834 41.4601 33.9139 42.6791C34.0668 45.0151 34.1737 47.3548 34.2827 49.379" fill="#99C656"/>
<path fill-rule="evenodd" clip-rule="evenodd" d="M25.5558 111.897C25.5178 110.475 25.6448 110.198 26.7915 109.857C28.0657 109.478 29.363 109.075 30.6747 108.953C32.2919 108.802 32.613 109.217 32.657 110.852C32.76 114.672 32.871 118.491 32.9435 122.312C32.9716 123.788 32.808 123.915 31.3653 124.065C30.4796 124.156 29.5985 124.3 28.7114 124.37C27.5412 124.463 27.1796 124.232 26.9761 123.068C26.7345 121.687 26.6165 120.285 26.441 118.892C26.1394 116.495 25.8344 114.097 25.5558 111.897" fill="#99C656"/>
<path fill-rule="evenodd" clip-rule="evenodd" d="M87.4142 52.0562C87.3762 50.634 87.5032 50.3569 88.6499 50.0157C89.9241 49.6367 91.2214 49.2334 92.5331 49.1118C94.1503 48.9614 94.4714 49.3763 94.5154 51.0105C94.6184 54.8305 94.7294 58.6501 94.8019 62.4706C94.83 63.9469 94.6664 64.0736 93.2237 64.2234C92.338 64.3153 91.4569 64.4586 90.5698 64.5293C89.3996 64.6222 89.038 64.3905 88.8345 63.2272C88.5929 61.8463 88.4749 60.4438 88.2994 59.0513C87.9978 56.6535 87.6928 54.2562 87.4142 52.0562" fill="#99C656"/>
<path fill-rule="evenodd" clip-rule="evenodd" d="M77.3309 121.527C77.2589 117.244 77.5941 116.926 80.865 117.002C81.038 117.005 81.2105 117.021 81.3836 117.025C83.0434 117.057 83.2371 117.169 83.4469 118.812C83.8733 122.148 84.2354 125.493 84.6192 128.834C84.6576 129.169 84.6591 129.506 84.6861 129.842C84.8425 131.774 84.4897 132.204 82.4787 132.386C81.6773 132.458 80.8609 132.484 80.06 132.424C78.8871 132.334 78.3903 131.887 78.2681 130.761C77.8915 127.303 77.563 123.841 77.3309 121.527" fill="#99C656"/>
<path fill-rule="evenodd" clip-rule="evenodd" d="M0.0930896 90.0919C0.0930896 89.9777 0.0945762 89.8636 0.0930896 89.7499C0.0539405 87.0534 0.066825 87.1676 2.68634 86.843C5.13688 86.5389 5.09773 86.7524 5.32271 89.2287C5.66811 93.028 5.85048 96.8441 6.04127 100.657C6.12997 102.428 5.64532 102.876 3.91582 102.873C3.42076 102.872 2.92421 102.818 2.43163 102.761C1.60999 102.666 1.163 102.223 1.08123 101.328C0.738306 97.5844 0.363169 93.8435 -7.51019e-05 90.1021C0.031145 90.0986 0.0618694 90.0955 0.0930896 90.0919" fill="#99C656"/>
<path fill-rule="evenodd" clip-rule="evenodd" d="M43.7972 58.4905C43.7972 58.3763 43.7987 58.2621 43.7972 58.1485C43.758 55.452 43.7709 55.5662 46.3904 55.2416C48.841 54.9375 48.8018 55.151 49.0268 57.6273C49.3722 61.4265 49.5546 65.2427 49.7454 69.0552C49.8341 70.8266 49.3494 71.275 47.6199 71.2715C47.1249 71.2704 46.6283 71.2167 46.1357 71.1599C45.3141 71.0646 44.8671 70.6213 44.7853 69.7264C44.4424 65.983 44.0673 62.2421 43.704 58.5007C43.7352 58.4971 43.766 58.4941 43.7972 58.4905" fill="#99C656"/>
<path fill-rule="evenodd" clip-rule="evenodd" d="M149.918 15.2843C149.918 16.4967 149.975 17.7126 149.901 18.9211C149.829 20.1157 149.454 20.5152 148.292 20.6317C146.918 20.7699 145.53 20.8671 144.151 20.8388C143.082 20.8175 142.845 20.4696 142.77 19.387C142.479 15.207 142.188 11.0265 141.906 6.84593C141.872 6.35174 141.857 5.85309 141.886 5.3594C141.922 4.74229 142.252 4.26396 142.883 4.21489C144.201 4.11179 145.54 3.95614 146.846 4.08056C148.188 4.20844 148.659 4.92023 148.931 6.25558C149.539 9.23757 150.016 12.227 149.918 15.2843" fill="#99C656"/>
<path fill-rule="evenodd" clip-rule="evenodd" d="M201.718 29.3882C201.718 27.498 201.698 25.6072 201.728 23.7175C201.739 23.0547 201.813 22.3789 201.965 21.736C202.235 20.5934 202.752 20.2044 203.911 20.1794C204.556 20.1655 205.206 20.162 205.846 20.2283C207.019 20.35 207.327 20.6293 207.508 21.8662C207.846 24.1734 208.143 26.4875 208.428 28.8027C208.659 30.6759 208.847 32.5552 209.054 34.4319C209.254 36.2443 208.947 36.757 207.247 37.1401C206.2 37.3765 205.128 37.5291 204.058 37.6254C202.445 37.77 201.984 37.3735 201.94 35.7197C201.884 33.611 201.927 31.4993 201.927 29.3892C201.857 29.3887 201.787 29.3887 201.718 29.3882" fill="#99C656"/>
<path fill-rule="evenodd" clip-rule="evenodd" d="M131.793 43.0188C131.793 40.9132 131.771 38.9278 131.8 36.9434C131.823 35.433 132.079 35.1866 133.555 35.0272C133.668 35.015 133.781 35.0135 133.894 35.0069C137.203 34.8175 137.426 35.1301 138.133 38.3281C139.037 42.413 138.918 46.5554 139.169 50.6789C139.245 51.9221 138.98 52.1323 137.771 52.3161C136.544 52.5024 135.327 52.7565 134.111 53.0013C132.609 53.3042 132.255 53.0772 132.176 51.5642C132.025 48.6772 131.915 45.7882 131.793 43.0188" fill="#99C656"/>
<path fill-rule="evenodd" clip-rule="evenodd" d="M164.739 21.2201C164.739 18.6762 164.716 16.4482 164.748 14.2212C164.767 12.8983 164.851 12.7811 166.104 12.5021C167.066 12.2881 168.056 12.1417 169.039 12.1053C170.111 12.0659 170.539 12.4903 170.744 13.5603C171.518 17.5986 172.006 21.6727 172.124 25.7914C172.182 27.8289 171.444 28.9066 169.548 29.3341C168.642 29.5383 167.69 29.5952 166.76 29.5829C165.591 29.5675 165.188 29.139 165.108 27.9201C164.955 25.584 164.848 23.2444 164.739 21.2201" fill="#99C656"/>
<path fill-rule="evenodd" clip-rule="evenodd" d="M229.287 83.0783C229.287 80.5344 229.263 78.3064 229.296 76.0794C229.315 74.7565 229.398 74.6392 230.652 74.3602C231.614 74.1462 232.604 73.9998 233.587 73.9635C234.659 73.924 235.087 74.3485 235.292 75.4184C236.066 79.4567 236.554 83.5308 236.672 87.6495C236.73 89.6871 235.992 90.7647 234.096 91.1922C233.19 91.3965 232.238 91.4533 231.308 91.441C230.138 91.4257 229.736 90.9972 229.656 89.7782C229.503 87.4422 229.396 85.1025 229.287 83.0783" fill="#99C656"/>
<path fill-rule="evenodd" clip-rule="evenodd" d="M238.014 20.5599C238.052 21.9822 237.925 22.2592 236.778 22.6004C235.504 22.9794 234.207 23.3827 232.895 23.5043C231.278 23.6547 230.957 23.2399 230.913 21.6057C230.81 17.7856 230.699 13.9661 230.626 10.1455C230.598 8.66927 230.762 8.54259 232.204 8.39269C233.09 8.30084 233.971 8.1575 234.858 8.08685C236.029 7.99398 236.39 8.22564 236.594 9.38896C236.835 10.7698 236.953 12.1724 237.129 13.5648C237.43 15.9626 237.735 18.36 238.014 20.5599" fill="#99C656"/>
<path fill-rule="evenodd" clip-rule="evenodd" d="M176.156 80.4011C176.194 81.8234 176.067 82.1004 174.92 82.4416C173.646 82.8206 172.349 83.2239 171.037 83.3455C169.42 83.4959 169.099 83.0811 169.055 81.4468C168.952 77.6268 168.841 73.8072 168.768 69.9867C168.74 68.5105 168.904 68.3838 170.347 68.2339C171.232 68.142 172.113 67.9987 173 67.928C174.171 67.8352 174.532 68.0668 174.736 69.2302C174.977 70.611 175.095 72.0136 175.271 73.406C175.572 75.8038 175.877 78.2011 176.156 80.4011" fill="#99C656"/>
<path fill-rule="evenodd" clip-rule="evenodd" d="M186.239 10.9305C186.311 15.2133 185.976 15.5309 182.705 15.4558C182.532 15.4518 182.359 15.4362 182.186 15.4326C180.526 15.3999 180.333 15.2879 180.123 13.6451C179.696 10.3089 179.334 6.96465 178.951 3.62293C178.912 3.28871 178.911 2.95096 178.884 2.61522C178.727 0.682983 179.08 0.252981 181.091 0.0715024C181.892 -0.0005848 182.709 -0.0267982 183.51 0.0336946C184.683 0.122921 185.179 0.570064 185.302 1.69624C185.678 5.1539 186.007 8.6161 186.239 10.9305" fill="#99C656"/>
<path fill-rule="evenodd" clip-rule="evenodd" d="M263.477 41.693C263.477 41.8072 263.475 41.9214 263.477 42.035C263.516 44.7315 263.503 44.6173 260.883 44.9419C258.433 45.246 258.472 45.0325 258.247 42.5562C257.902 38.757 257.719 34.9409 257.528 31.1283C257.44 29.3569 257.924 28.9085 259.654 28.9121C260.149 28.9131 260.646 28.9668 261.138 29.0237C261.96 29.1189 262.407 29.5622 262.489 30.4571C262.831 34.2006 263.207 37.9414 263.57 41.6828C263.539 41.6864 263.508 41.6895 263.477 41.693" fill="#99C656"/>
<path fill-rule="evenodd" clip-rule="evenodd" d="M219.773 73.2945C219.773 73.4087 219.771 73.5228 219.773 73.6365C219.812 76.333 219.799 76.2188 217.179 76.5434C214.729 76.8475 214.768 76.634 214.543 74.1576C214.198 70.3584 214.015 66.5423 213.824 62.7298C213.736 60.9584 214.22 60.5099 215.95 60.5135C216.445 60.5145 216.941 60.5683 217.434 60.6251C218.256 60.7203 218.703 61.1637 218.784 62.0586C219.127 65.802 219.502 69.5429 219.866 73.2843C219.835 73.2878 219.804 73.2909 219.773 73.2945" fill="#99C656"/>
<path fill-rule="evenodd" clip-rule="evenodd" d="M161.348 114.795C161.348 116.008 161.405 117.223 161.332 118.432C161.259 119.627 160.884 120.026 159.722 120.143C158.348 120.281 156.96 120.378 155.581 120.35C154.512 120.328 154.276 119.98 154.2 118.898C153.909 114.718 153.619 110.537 153.336 106.357C153.302 105.863 153.287 105.364 153.316 104.87C153.352 104.253 153.682 103.775 154.313 103.726C155.632 103.623 156.97 103.467 158.276 103.591C159.618 103.719 160.089 104.431 160.361 105.766C160.969 108.748 161.446 111.738 161.348 114.795" fill="#99C656"/>
<path fill-rule="evenodd" clip-rule="evenodd" d="M212.476 128.899C212.476 127.009 212.456 125.118 212.487 123.228C212.497 122.566 212.571 121.89 212.723 121.247C212.993 120.104 213.51 119.715 214.669 119.69C215.314 119.676 215.964 119.673 216.605 119.739C217.777 119.861 218.085 120.14 218.266 121.377C218.604 123.684 218.901 125.998 219.187 128.314C219.417 130.187 219.605 132.066 219.812 133.943C220.012 135.755 219.705 136.268 218.006 136.651C216.958 136.887 215.886 137.04 214.817 137.136C213.203 137.281 212.742 136.884 212.698 135.231C212.642 133.122 212.685 131.01 212.685 128.9C212.615 128.9 212.545 128.9 212.476 128.899" fill="#99C656"/>
<path fill-rule="evenodd" clip-rule="evenodd" d="M143.223 142.53C143.223 140.424 143.201 138.439 143.23 136.454C143.253 134.944 143.509 134.698 144.985 134.538C145.098 134.526 145.211 134.524 145.324 134.518C148.633 134.328 148.857 134.641 149.564 137.839C150.467 141.924 150.348 146.066 150.599 150.19C150.675 151.433 150.41 151.643 149.201 151.827C147.975 152.013 146.757 152.267 145.541 152.512C144.039 152.815 143.686 152.588 143.606 151.075C143.455 148.188 143.345 145.299 143.223 142.53" fill="#99C656"/>
<path fill-rule="evenodd" clip-rule="evenodd" d="M176.169 120.731C176.169 118.187 176.146 115.959 176.178 113.732C176.197 112.409 176.281 112.292 177.534 112.013C178.496 111.799 179.486 111.653 180.469 111.616C181.541 111.577 181.969 112.001 182.174 113.071C182.949 117.11 183.436 121.184 183.554 125.302C183.612 127.34 182.875 128.418 180.978 128.845C180.073 129.049 179.12 129.106 178.19 129.094C177.021 129.079 176.618 128.65 176.538 127.431C176.385 125.095 176.278 122.755 176.169 120.731" fill="#99C656"/>
<path fill-rule="evenodd" clip-rule="evenodd" d="M240.717 182.589C240.717 180.045 240.694 177.817 240.726 175.59C240.745 174.267 240.829 174.15 242.082 173.871C243.044 173.657 244.034 173.511 245.017 173.474C246.089 173.435 246.517 173.859 246.722 174.929C247.496 178.968 247.984 183.042 248.102 187.16C248.16 189.198 247.422 190.276 245.526 190.703C244.621 190.907 243.668 190.964 242.738 190.952C241.569 190.937 241.166 190.508 241.086 189.289C240.933 186.953 240.826 184.614 240.717 182.589" fill="#99C656"/>
<path fill-rule="evenodd" clip-rule="evenodd" d="M248.772 120.071C248.81 121.493 248.683 121.77 247.536 122.112C246.262 122.491 244.965 122.894 243.653 123.015C242.036 123.166 241.715 122.751 241.671 121.117C241.568 117.297 241.457 113.477 241.384 109.657C241.356 108.18 241.52 108.054 242.962 107.904C243.848 107.812 244.729 107.669 245.616 107.598C246.786 107.505 247.148 107.737 247.351 108.9C247.593 110.281 247.711 111.683 247.887 113.076C248.188 115.474 248.493 117.871 248.772 120.071" fill="#99C656"/>
<path fill-rule="evenodd" clip-rule="evenodd" d="M187.586 179.912C187.624 181.334 187.497 181.611 186.35 181.953C185.076 182.332 183.779 182.735 182.467 182.857C180.85 183.007 180.529 182.592 180.485 180.958C180.382 177.138 180.271 173.318 180.198 169.498C180.17 168.021 180.334 167.895 181.777 167.745C182.662 167.653 183.543 167.51 184.431 167.439C185.601 167.346 185.962 167.578 186.166 168.741C186.407 170.122 186.525 171.525 186.701 172.917C187.003 175.315 187.308 177.712 187.586 179.912" fill="#99C656"/>
<path fill-rule="evenodd" clip-rule="evenodd" d="M197.669 109.769C197.741 114.052 197.406 114.37 194.135 114.294C193.962 114.291 193.789 114.275 193.616 114.271C191.957 114.238 191.763 114.127 191.553 112.484C191.127 109.148 190.765 105.803 190.381 102.462C190.342 102.127 190.341 101.79 190.314 101.454C190.157 99.5216 190.51 99.0916 192.521 98.9101C193.323 98.838 194.139 98.8118 194.94 98.8723C196.113 98.9615 196.61 99.4087 196.732 100.535C197.108 103.993 197.437 107.455 197.669 109.769" fill="#99C656"/>
<path fill-rule="evenodd" clip-rule="evenodd" d="M274.907 141.204C274.907 141.318 274.905 141.432 274.907 141.546C274.946 144.242 274.933 144.128 272.314 144.453C269.863 144.757 269.902 144.544 269.677 142.067C269.332 138.268 269.149 134.452 268.959 130.639C268.87 128.868 269.355 128.419 271.084 128.423C271.579 128.424 272.076 128.478 272.568 128.535C273.39 128.63 273.837 129.073 273.919 129.968C274.262 133.712 274.637 137.452 275 141.194C274.969 141.197 274.938 141.2 274.907 141.204" fill="#99C656"/>
<path fill-rule="evenodd" clip-rule="evenodd" d="M231.203 172.805C231.203 172.92 231.201 173.034 231.203 173.147C231.242 175.844 231.229 175.73 228.609 176.054C226.159 176.358 226.198 176.145 225.973 173.669C225.628 169.869 225.445 166.053 225.255 162.241C225.166 160.469 225.651 160.021 227.38 160.024C227.875 160.026 228.372 160.079 228.864 160.136C229.686 160.231 230.133 160.675 230.215 161.57C230.558 165.313 230.933 169.054 231.296 172.795C231.265 172.799 231.234 172.802 231.203 172.805" fill="#99C656"/>
</svg>
