<?xml version="1.0" encoding="UTF-8"?>
<svg height="82" id="Calque_1" data-name="Calque 1" xmlns="http://www.w3.org/2000/svg" viewBox="0 0 1366 544">
  <defs>
    <style>
      .cls-1 {
        fill: #00a2a7;
        stroke-width: 0px;
      }
    </style>
  </defs>
  <path class="cls-1" d="m220.63,118.27l-98.99,176.28-55.58,98.99,66.91,11.43,36.42-71.14h83l10.59,67.76h70.3l-54.21-283.31h-58.44Zm23.71,164.31h-49.12c1.76-3.6,3.52-7.17,5.27-10.72,4.36-8.86,8.67-17.54,12.93-26.07.85-1.71,1.71-3.44,2.56-5.13.42-.85.83-1.66,1.25-2.49,3.75-7.49,7.25-14.43,10.46-20.76,2.14-4.22,4.17-8.19,6.07-11.89h0s0,0,0,0c.88,6,1.82,12.8,2.81,20.4.4,3.04.8,6.21,1.22,9.5.21,1.65.42,3.33.63,5.04.85,6.85,1.76,13.78,2.75,20.8.49,3.51,1.01,7.04,1.53,10.6s1.08,7.13,1.64,10.73h0Z"/>
  <path class="cls-1" d="m568.07,306.39c.24-18.31,2.04-36.44,5.4-54.16h-61.92l-4.34,22.29-5.4,27.68c-.56,2.92-1.33,5.73-2.2,8.47-1.32,4.15-2.96,8.12-5,11.85-3.39,6.21-7.27,11.58-11.64,16.09-1.1,1.13-2.2,2.2-3.32,3.2-3.36,3.02-6.84,5.48-10.44,7.38-3.6,1.91-7.12,3.1-10.56,3.57-1.15.16-2.28.24-3.41.24h0c-3.92,0-7.42-.68-10.5-2.05-5.14-2.28-9.12-6.47-11.94-12.56-.56-1.22-1.09-2.47-1.59-3.77-3.46-9.06-5.19-20.02-5.19-32.86,0-8.64.55-17.73,1.65-27.26.44-3.81.97-7.69,1.59-11.65.31-1.98.64-3.97.99-5.98.7-4.02,1.51-7.97,2.42-11.84.91-3.87,1.92-7.67,3.03-11.39,1.11-3.72,2.32-7.37,3.64-10.94,1.32-3.57,2.73-7.07,4.25-10.5,1.52-3.42,3.14-6.7,4.86-9.83,1.72-3.13,3.54-6.12,5.47-8.96.96-1.42,1.95-2.8,2.96-4.15,3.01-4.01,6.25-7.7,9.72-11.07.03-.03.05-.05.08-.08h0c.13-.13.28-.24.41-.36,4.55-4.32,9.56-7.6,15.04-9.8,5.65-2.26,11.79-3.39,18.42-3.39,3.1,0,5.94.18,8.52.53,2.58.35,4.89.88,6.94,1.59,1.02.35,2,.73,2.92,1.14,1.85.81,3.51,1.73,4.98,2.75.73.51,1.42,1.05,2.05,1.61,2.27,2.03,4.13,4.35,5.61,6.94.17.3.36.59.52.9,1.55,2.96,2.89,6,4.02,9.1l36.92-16.86,16.86-7.7c-.42-1.76-.89-3.51-1.4-5.24-1.02-3.46-2.22-6.85-3.6-10.16-.69-1.66-1.42-3.3-2.2-4.93-.78-1.62-1.64-3.19-2.58-4.7-.67-1.08-1.41-2.12-2.17-3.14-.84-1.12-1.71-2.22-2.65-3.27-1.2-1.34-2.47-2.62-3.84-3.84-.68-.61-1.38-1.21-2.11-1.79-1.45-1.16-2.99-2.27-4.63-3.32-1.64-1.05-3.38-2.04-5.21-2.98-1.83-.94-3.77-1.81-5.8-2.63-2.03-.82-4.15-1.58-6.38-2.29-4.3-1.36-9.13-2.39-14.46-3.1-1.65-.22-3.36-.41-5.11-.56-4.27-.38-8.82-.57-13.67-.57-15.72,0-30.24,1.76-43.55,5.29-10.35,2.74-19.98,6.56-28.87,11.43-4.22,2.31-8.24,4.82-12.14,7.44-1.41.95-2.81,1.91-4.18,2.9-13.13,9.46-24.44,20.75-33.86,33.91-1.64,2.29-3.23,4.63-4.76,7.01-6.14,9.51-11.43,19.69-15.88,30.54-2.22,5.43-4.23,11.02-6.03,16.78-.9,2.88-1.75,5.8-2.54,8.77-.79,2.96-1.54,5.94-2.23,8.93-2.08,8.96-3.72,18.02-4.91,27.18-1.59,12.21-2.38,24.6-2.38,37.16,0,5.77.23,11.29.69,16.57.31,3.52.72,6.92,1.23,10.22.77,4.94,1.77,9.64,3,14.08.82,2.96,1.74,5.82,2.77,8.56,3.08,8.23,7.08,15.47,12,21.72,4.92,6.25,10.81,11.32,17.66,15.23,2.28,1.3,4.67,2.47,7.17,3.51,2.5,1.04,5.1,1.95,7.81,2.73,8.13,2.34,17.23,3.51,27.29,3.51,3.39,0,6.68-.21,9.89-.62,3.2-.42,6.31-1.04,9.33-1.87,3.02-.83,5.94-1.87,8.77-3.11,2.83-1.24,5.57-2.69,8.22-4.35,10.59-6.63,19.41-15.88,26.47-27.74h0s0,0,0,0l-5.08,21.6-5.08,21.6c-.25,1.02-.53,2.02-.85,3-1.61,4.88-4.16,9.19-7.64,12.92-1.39,1.49-2.94,2.89-4.63,4.2-2.54,1.96-5.3,3.55-8.28,4.77-.99.41-2.01.78-3.05,1.1-4.16,1.31-8.72,1.96-13.66,1.96-2.33,0-4.71-.1-7.15-.31-2.43-.2-4.92-.51-7.46-.91-3.81-.61-7.74-1.45-11.79-2.51-1.35-.35-2.71-.73-4.09-1.14-2.75-.81-5.73-1.78-8.95-2.9-1.61-.56-3.27-1.16-4.99-1.8-3.44-1.27-7.11-2.7-11.01-4.29-1.95-.79-3.96-1.62-6.02-2.49-4.13-1.74-8.49-3.63-13.07-5.68l-11.86,26.04-11.86,26.05c.45.24.95.48,1.41.71,2.3,1.18,4.75,2.37,7.42,3.57,3.21,1.45,6.69,2.91,10.43,4.39,4.21,1.67,8.57,3.26,13.05,4.8,3.48,1.19,7.02,2.35,10.66,3.46,6.24,1.91,12.69,3.53,19.33,4.88,2.21.45,4.45.87,6.71,1.26,4.52.77,8.96,1.36,13.34,1.75,4.38.39,8.68.58,12.92.58,3.46,0,6.85-.14,10.17-.41,6.33-.52,12.41-1.55,18.26-3.06,3.38-.87,6.68-1.89,9.89-3.09,1.46-.55,2.91-1.12,4.33-1.72,4.27-1.8,8.35-3.84,12.24-6.12,1.3-.76,2.57-1.54,3.83-2.36,3.77-2.43,7.34-5.11,10.73-8.02,1.13-.97,2.24-1.96,3.32-2.98,1.08-1.01,2.14-2.05,3.18-3.1,2.07-2.11,4.05-4.3,5.94-6.58.94-1.14,1.86-2.3,2.76-3.48,2.69-3.54,5.18-7.27,7.46-11.18.76-1.31,1.49-2.62,2.19-3.95,1.4-2.66,2.68-5.36,3.84-8.1,1.16-2.74,2.2-5.53,3.12-8.36.46-1.42.89-2.84,1.29-4.28.8-2.88,1.49-5.8,2.05-8.76l19.68-102.53Z"/>
  <path class="cls-1" d="m611.3,225.1l-6.19,32.24-9.95,51.86c0,.44-.02.88-.02,1.32,0,3.81.12,7.52.36,11.12.24,3.6.6,7.1,1.08,10.5.48,3.4,1.08,6.69,1.8,9.88,1.08,4.78,2.43,9.34,4.06,13.65,1.08,2.88,2.28,5.65,3.61,8.32,3.31,6.68,7.36,12.71,12.17,18.09.96,1.08,1.96,2.12,3,3.13,1.26,1.22,2.59,2.38,3.95,3.5,3.15,2.59,6.57,4.93,10.31,7,2.68,1.48,5.51,2.83,8.49,4.04,2.98,1.21,6.11,2.29,9.4,3.23,3.28.94,6.72,1.75,10.3,2.42,5.38,1.01,11.1,1.72,17.15,2.12,4.04.27,8.23.4,12.57.4,3.35,0,6.65-.09,9.89-.26s6.43-.44,9.56-.79c3.13-.35,6.21-.79,9.23-1.32,3.02-.53,5.99-1.15,8.9-1.85,2.91-.71,5.77-1.5,8.57-2.38,2.8-.88,5.55-1.85,8.24-2.91,5.38-2.12,10.54-4.59,15.48-7.41,2.47-1.41,4.89-2.88,7.25-4.4,4.73-3.05,9.25-6.32,13.55-9.82,2.15-1.75,4.25-3.55,6.3-5.42,4.09-3.72,7.98-7.67,11.65-11.85,3.67-4.17,7.13-8.57,10.38-13.2,2.6-3.7,5.03-7.54,7.37-11.46,1.25-2.09,2.45-4.21,3.62-6.35,4.85-8.9,9.09-18.28,12.63-28.2,2-5.6,3.8-11.37,5.39-17.3,1.45-5.4,2.71-10.85,3.83-16.33.22-1.08.43-2.15.64-3.23,1.05-5.48,1.96-10.99,2.68-16.54,1.59-12.21,2.38-24.6,2.38-37.16,0-13.46-1.49-25.59-4.46-36.37-1.7-6.16-3.88-11.89-6.55-17.18-2-3.97-4.28-7.69-6.82-11.17-1.7-2.32-3.52-4.53-5.46-6.63,0,0-.02-.02-.03-.03-1.48-1.6-3.07-3.1-4.73-4.54-1.59-1.39-3.24-2.74-4.99-3.99-3.59-2.56-7.51-4.82-11.77-6.79-7.1-3.28-15.14-5.74-24.12-7.38-8.98-1.64-18.89-2.46-29.74-2.46-4.92,0-9.71.19-14.39.57-.25.02-.5.04-.74.06-2.86.24-5.68.56-8.46.94-1.71.24-3.42.49-5.1.78-3.02.52-5.99,1.13-8.9,1.83-1.46.35-2.9.72-4.33,1.11-2.86.78-5.66,1.66-8.4,2.61-1.37.48-2.73.98-4.08,1.5-5.38,2.09-10.54,4.53-15.48,7.32-7.41,4.18-14.34,8.87-20.78,14.07-2.15,1.73-4.24,3.52-6.28,5.36-5.77,5.22-11.09,10.92-15.99,17.04-2.02,2.53-3.99,5.11-5.87,7.78-.54.77-1.03,1.57-1.56,2.34-2.62,3.87-5.13,7.82-7.47,11.93-5.61,9.85-10.41,20.36-14.4,31.55-.6,1.68-1.14,3.41-1.71,5.12h2.97Zm59.18,50.18c.44-3.84.97-7.74,1.59-11.7.31-1.98.64-3.98.99-5.99.35-2.01.73-4,1.12-5.98.79-3.94,1.68-7.81,2.65-11.59.97-3.78,2.03-7.49,3.18-11.12.78-2.47,1.62-4.9,2.49-7.3,1.04-2.88,2.12-5.71,3.27-8.48.39-.95.82-1.86,1.23-2.78.68-1.54,1.39-3.06,2.12-4.54,2.74-5.57,5.78-10.74,9.14-15.44,2.88-4.02,5.99-7.73,9.32-11.12,1.11-1.13,2.25-2.19,3.41-3.18,2.32-1.98,4.75-3.67,7.28-5.08,1.26-.71,2.55-1.34,3.87-1.91,5.26-2.26,10.92-3.39,16.99-3.39,7.34,0,13.48,1.27,18.42,3.81,1.23.64,2.41,1.34,3.52,2.1,1.11.77,2.16,1.6,3.15,2.5,1.98,1.8,3.71,3.86,5.19,6.19,2.96,4.66,5.08,10.1,6.35,16.3.63,3.11,1.11,6.32,1.43,9.64.32,3.32.48,6.74.48,10.27h0c0,1.77-.02,3.55-.07,5.34-.09,3.6-.27,7.26-.53,10.98-.27,3.73-.62,7.52-1.06,11.38-.25,2.21-.54,4.45-.85,6.7-.5,3.65-1.07,7.35-1.73,11.12-.63,3.63-1.34,7.19-2.12,10.7-.18.8-.35,1.59-.54,2.38-1.16,5.02-2.47,9.91-3.92,14.68-.69,2.27-1.41,4.53-2.16,6.74-.62,1.8-1.26,3.59-1.92,5.36-.66,1.77-1.35,3.51-2.05,5.24-.4.98-.83,1.93-1.25,2.88-2.52,5.79-5.32,11.19-8.44,16.12-2.73,4.31-5.68,8.3-8.86,11.96-1.06,1.22-2.15,2.4-3.26,3.55-.54.56-1.11,1.04-1.66,1.57-8.54,8.1-18.49,12.2-29.89,12.2-2.75,0-5.34-.19-7.76-.57-1.61-.25-3.15-.59-4.61-1.01-.73-.21-1.44-.44-2.13-.69-1.38-.5-2.69-1.09-3.93-1.76-3.71-2.01-6.86-4.62-9.45-7.82-.86-1.07-1.67-2.2-2.41-3.4-1.48-2.4-2.75-4.99-3.81-7.78-1.06-2.79-1.91-5.77-2.54-8.95-1.27-6.35-1.9-13.19-1.9-20.54,0-8.82.55-18.03,1.65-27.62Z"/>
  <path class="cls-1" d="m611.3,225.1h-2.97c-1.31,3.98-2.56,8.02-3.67,12.17-1.19,4.45-2.23,8.93-3.2,13.42-.97,4.5-1.86,9.01-2.61,13.56-.5,3.03-.94,6.07-1.34,9.12-.79,6.11-1.39,12.25-1.79,18.45-.37,5.76-.55,11.56-.57,17.39l9.95-51.86,6.19-32.24Z"/>
  <path class="cls-1" d="m1098.32,416.73l-6.76-9.82-14.36-20.87c-.89-1.18-1.78-2.33-2.68-3.53-4.45-5.93-8.79-11.91-13.02-17.94-4.24-6.03-8.36-12.12-12.39-18.26-5.3-8.09-10.2-16.15-14.76-24.18-2.36-4.16-4.67-8.31-6.83-12.45-4.76-9.1-8.7-17.65-11.79-25.65-1.03-2.66-1.97-5.27-2.82-7.81h0c2.47-.92,4.9-1.9,7.28-2.95,2.38-1.05,4.72-2.17,7.01-3.35,4.59-2.36,9-4.99,13.23-7.89,2.12-1.45,4.16-2.95,6.13-4.52,3.93-3.14,7.57-6.53,10.9-10.16,1.67-1.82,3.26-3.7,4.78-5.64,1.52-1.94,2.95-3.95,4.3-6.02,2.02-3.11,3.86-6.37,5.51-9.78,1.65-3.41,3.11-6.97,4.38-10.67.42-1.23.82-2.49,1.19-3.76.74-2.55,1.38-5.18,1.91-7.89.26-1.35.5-2.73.71-4.12.85-5.58,1.27-11.47,1.27-17.68s-.55-11.93-1.64-17.15c-.27-1.31-.58-2.58-.92-3.82-.68-2.49-1.5-4.85-2.46-7.09-.48-1.12-.99-2.21-1.54-3.27-1.64-3.18-3.53-6.11-5.67-8.81-1.43-1.8-2.96-3.49-4.61-5.08-2.47-2.38-5.18-4.53-8.14-6.43-.99-.64-2-1.25-3.03-1.84-2.06-1.18-4.2-2.28-6.43-3.28-2.23-1.01-4.54-1.92-6.93-2.75-3.59-1.24-7.37-2.29-11.34-3.14-10.59-2.26-22.09-3.39-34.51-3.39-7.91,0-15.32.36-22.23,1.06-1.73.18-3.42.37-5.07.57-4.95.61-9.54,1.34-13.77,2.18l-47.01-2.96-55.05,285h68.6l22.87-117.3h0c1.7,0,3.53.07,5.5.21.99.07,1.94.13,2.86.16.92.03,1.8.05,2.65.05.93,2.65,1.87,5.23,2.81,7.82,1.61,4.45,3.23,8.83,4.86,13.1,1.29,3.37,2.58,6.68,3.88,9.94,1.3,3.26,2.6,6.45,3.91,9.59,5.22,12.56,11.29,25.06,18.21,37.48,1.73,3.11,3.53,6.24,5.4,9.41,3.74,6.34,7.76,12.79,12.07,19.37,2.15,3.29,4.38,6.61,6.67,9.96,2.29,3.35,4.7,6.78,7.21,10.28,2.51,3.5,5.14,7.08,7.87,10.73,1.37,1.83,2.76,3.67,4.19,5.54,2.85,3.73,5.8,7.53,8.87,11.41,1.53,1.94,3.09,3.9,4.68,5.87l54.08-28.46Zm-94.26-203.28c-1.46,2.59-3.2,4.97-5.24,7.15-1.02,1.09-2.11,2.13-3.28,3.12-2.33,1.98-4.86,3.71-7.6,5.19-1.87,1.01-3.87,1.87-5.92,2.65-2.46.94-5.02,1.75-7.76,2.35-1.67.37-3.39.68-5.17.93-3.55.49-7.3.74-11.25.74h-5.93l13.97-73.26c2.26-.56,4.51-.85,6.78-.85h7.2c4.82,0,9.1.66,12.87,1.95,2.63.9,5.01,2.1,7.14,3.63.54.39,1.08.77,1.59,1.2.67.56,1.3,1.17,1.88,1.83,1.17,1.31,2.18,2.79,3.02,4.45,2.1,4.15,3.14,9.39,3.14,15.75,0,9-1.82,16.73-5.46,23.19Z"/>
  <path class="cls-1" d="m1099.19,370.15c5.23,6.9,10.42,13.55,15.5,19.84l28.42-56.17h83l10.59,67.76h70.3l-29.47-154.02-24.74-129.29h-58.44l-120.65,214.85,25.49,37.03Zm75.02-98.29c4.36-8.86,8.67-17.54,12.93-26.07.85-1.71,1.71-3.44,2.56-5.13.42-.85.83-1.66,1.25-2.49,1.67-3.34,3.29-6.56,4.85-9.67,1.17-2.32,2.32-4.6,3.43-6.79,2.96-5.86,5.72-11.26,8.26-16.2.03.17.05.36.08.54.48,3.31.98,6.85,1.5,10.63.21,1.55.43,3.13.64,4.77.78,5.82,1.59,12.16,2.44,19,.42,3.42.86,6.87,1.32,10.34.92,6.93,1.9,13.96,2.96,21.07.53,3.56,1.08,7.13,1.64,10.73h-49.12c1.76-3.6,3.52-7.17,5.27-10.72Z"/>
</svg>