<?xml version="1.0" encoding="UTF-8"?>
<svg width="30" id="Calque_1" data-name="Calque 1" xmlns="http://www.w3.org/2000/svg" viewBox="0 0 544 544">
  <defs>
    <style>
      .cls-1 {
        fill: #EF7D2C;
        stroke-width: 0px;
      }
    </style>
  </defs>
  <path class="cls-1" d="m218.14,58.13c44.04-13.37,93.22-9.97,134.74,11.13,37.72,19.17,67.21,58.63,64.95,100.89-1.29,24.18-12.39,46.65-23.93,67.93-32.33,59.6-69.98,116.32-112.37,169.24-52.79-47.32-98.18-102.86-134.05-164.01-16.22-27.65-30.93-58.74-26.6-90.5,3.48-25.53,19.25-48.26,39.35-64.38,17.23-13.82,37-23.95,57.92-30.3Zm161.98,67.98c-11.24-16.46-28.4-29.4-47.12-36.77-48.95-19.28-108.98-11.32-153.01,16.71-17.38,11.06-32.13,27.89-35.99,48.12-3.37,17.66,1.79,35.85,8.79,52.41,11.93,28.21,29.2,53.8,46.71,78.94,25.87,37.15,52.5,73.78,79.88,109.84,39.33-52.08,72.51-108.8,98.63-168.61,9.29-21.26,17.85-44.05,15.08-67.08-1.46-12.18-6.12-23.51-12.97-33.55ZM232.76,56l-.07-.59-1.31.24c.01.12.03.23.04.35h1.34Z"/>
  <path class="cls-1" d="m241.29,463.98c-1.24-10.39,4.43-20.84,12.36-27.8,17.25-15.11,40.71-22.45,58.93-4.7,7.71,7.51,11.79,19.03,9.13,29.46-3.5,13.71-17.2,22.5-30.87,26.12-9.76,2.59-20.33,3.21-29.82-.23-9.49-3.44-17.67-11.44-19.5-21.37-.09-.49-.17-.99-.22-1.48Zm40.51,13.25c2.16-.53,4.22-1.41,6.1-2.65,8.47-5.6,11.5-18.31,5.88-26.77-9.71-14.62-32.52-21.51-39.24-.11-2.51,8.01-.32,17.32,5.51,23.36,5.49,5.69,14.17,8.04,21.75,6.16Z"/>
  <path class="cls-1" d="m263.84,243.78c-.66-.05-1.33-.12-1.99-.19-20.46-2.33-39.3-15.83-48.09-34.46-6.1-12.94-7.4-28.22-2.82-41.76,12.95-38.32,60.01-50.59,94.82-37,13.89,5.42,26.24,16.68,29.55,31.22,2.99,13.19-1.66,26.86-7.27,39.16-3.21,7.05-6.8,13.99-11.59,20.07-12.33,15.66-32.76,24.52-52.61,22.97Zm56.25-68.79c-.11-2.29-.48-4.55-1.15-6.75-2.57-8.34-9.34-14.77-16.69-19.46-22.89-14.62-54.82-15.75-72.56,8.13-7.07,9.52-8.46,22.5-5.36,33.94,3.1,11.44,10.28,21.44,18.85,29.63,6.03,5.76,13.19,10.9,21.45,12.03,7.13.98,14.38-1.16,20.81-4.4,15.22-7.66,27.02-21.71,32.3-37.92,1.59-4.89,2.6-10.09,2.36-15.19Z"/>
</svg>