<?xml version="1.0" encoding="UTF-8"?>
<svg width="30" id="Calque_1" data-name="Calque 1" xmlns="http://www.w3.org/2000/svg" viewBox="0 0 544 544">
  <defs>
    <style>
      .cls-1 {
        fill: #EF7D2C;
        stroke-width: 0px;
      }
    </style>
  </defs>
  <path class="cls-1" d="m472.4,194.8c-.28-.03-.57-.06-.86-.08.96,66.99-5.47,134.08-19.13,199.67-.7,3.34-1.67,7.05-4.59,8.82-2.04,1.23-4.58,1.2-6.96,1.03-10.55-.75-20.85-3.45-31.07-6.14-29.09-7.66-58.17-15.31-87.26-22.97-16.17-4.26-32.46-8.53-49.14-9.66-17.21-1.17-34.47,1.04-51.55,3.48-48.16,6.88-96.05,15.67-143.51,26.33-3.99.9-9.02,1.43-11.34-1.94-.92-1.35-1.15-3.04-1.35-4.66-8.41-68.71-7.99-138.5,1.24-207.11-9.12-2.28-18.51,4.64-22.29,13.25s-3.36,18.39-2.86,27.78c3.4,64.17,6.79,128.34,10.19,192.52,56.71-6.67,112.94-17.5,168.07-32.37,4.19-1.13,8.52-2.3,12.83-1.7,6.92.96,12.8,6.35,19.79,6.52,6.01.14,11.33-3.61,17.06-5.43,10.34-3.3,21.51-.23,31.92,2.83,46.3,13.62,92.6,27.25,138.9,40.87,4.16,1.22,9.38,4.54,7.59,8.49-1.38,3.04-5.68,2.95-8.96,2.35-38.12-6.97-75.67-17.1-112.13-30.23-18.3-6.59-38.09-14.03-56.66-8.23-5.59,1.75-11.05,4.7-16.9,4.35-8.12-.48-14.94-7.23-23.07-7.41-4.04-.09-7.91,1.47-11.69,2.9-47.79,18.15-100.07,19.76-150.01,30.67-7.61,1.66-15.81,3.49-22.94.37-12.53-5.49-14.44-22.18-14.42-35.86.06-40.38.75-80.75,2.07-121.11.67-20.53,1.51-41.06,2.52-61.58.31-6.29-1.81-21.59,1.67-26.82,3.75-5.64,14.2-4.75,20.26-7.99,6.22-3.32,11.44-9.44,11.65-16.49,67.4-22.05,137.48-35.91,208.21-41.18-8.03,7.71-20.05,8.99-31.13,10.11-53.96,5.42-107.37,16.37-159.12,32.61-2.12.67-4.35,1.41-5.79,3.11-1.65,1.94-1.89,4.66-2.06,7.2-1.91,28.5-3.83,57.01-5.74,85.51-2.77,41.33-5.51,83.23,2.49,123.87,58.46-11.66,117.34-21.23,176.49-28.68,5.91-73.47,11.83-147.06,24.41-219.69,5.45,17.91,4.42,37.05,3.33,55.74-3.07,52.99-6.14,105.98-9.21,158.97,52.68,10.18,104.68,23.85,155.55,40.89,20.15-68.57,29.56-140.28,27.77-211.72-.05-1.95-.14-4.01-1.22-5.63-1.16-1.74-3.21-2.62-5.15-3.4-43.47-17.47-88.78-30.37-134.93-38.41-7.72-1.34-16.93-3.79-19.14-11.3,54.63,10.97,108.47,25.87,160.97,44.54,5.05,1.8,10.5,3.97,13.11,8.65,1.79,3.21,1.92,7.1,3.46,10.44,3.57,7.72,13.21,10.22,19.42,16.02,9.05,8.46,9.54,22.41,9.24,34.79-1.61,66.01-7.9,131.8-14.19,197.53-.56,5.87-1.91,12.86-7.39,15.05-3.64-2.21-3.89-7.3-3.69-11.55,2.98-63.8,11.97-127.14,18.03-190.72.92-9.68,1.75-19.67-1.23-28.92s-10.27-17.17-19.57-18.27Z"/>
</svg>