<?xml version="1.0" encoding="UTF-8"?>
<svg width="30" id="Calque_1" data-name="Calque 1" xmlns="http://www.w3.org/2000/svg" viewBox="0 0 544 544">
  <defs>
    <style>
      .cls-1 {
        fill: #EF7D2C;
        stroke-width: 0px;
      }
    </style>
  </defs>
  <path class="cls-1" d="m377.53,244.27c-2.17,11.54-4.96,22.95-8.36,34.19-2.07,6.85-5.87,14.86-13,15.33-4.25.28-8.07-2.38-11.5-4.92-8.78-6.5-17.56-13.01-26.35-19.51-3.98,3.76-6.72,8.8-7.71,14.18,5.65-.78,11.29-1.55,16.94-2.33,2.74,12.44,7.87,24.35,15.03,34.89,9.45-1.18,19.2.19,27.96,3.92,4.94-11.76,9.87-23.53,14.81-35.29,1.26-3.01,2.78-6.29,5.78-7.61,2.52-1.1,5.42-.5,8.1.12,9.92,2.3,20.16,4.74,28.33,10.81,8.17,6.08,13.78,16.83,10.74,26.55-2.48,7.92-9.77,13.13-15.45,19.17-5.68,6.04-10.06,15.41-5.55,22.37,4.56,7.05,15.01,6.78,22.99,4.16,7.98-2.62,16.16-6.83,24.32-4.87,9.16,2.19,14.97,11.84,15.77,21.23.8,9.39-2.32,18.62-5.39,27.53-1.55,4.51-3.18,9.14-6.31,12.74-11.1,12.76-31.8,5.39-46.58-2.82-2.58,9.98-8.33,19.12-16.23,25.75,4.01,11.76,8.02,23.51,12.03,35.27,1.35,3.97,2.63,8.62.31,12.11-1.76,2.65-5.06,3.74-8.14,4.54-15.87,4.14-32.49,5.37-48.8,3.62-3.96-14.71-4.94-30.21-2.87-45.31-5.96-1.58-11.92-3.17-17.88-4.75-6.98,11.98-12.77,24.64-17.27,37.75-15.97-1.45-31.96-11.31-36.73-26.63-4.77-15.31,5.57-34.66,21.56-35.95-15.59-6.52-33.98-5.98-49.15,1.45-8.06-16.89-11.5-35.94-9.87-54.58-27.93-4.46-55.86-8.91-83.8-13.37-3.19-.51-6.69-1.19-8.69-3.72-2.86-3.61-1.23-8.87.52-13.14,4.43-10.81,8.86-21.62,13.29-32.43-21.73-11.59-39.01-31.3-47.66-54.36-10.32,2.2-20.63,4.4-30.95,6.61-3.32.71-6.93,1.39-10-.08-4.03-1.93-5.59-6.78-6.51-11.15-7.97-37.75,7.87-141.27,62.61-87.78,12.63-22.41,36.53-38.08,62.12-40.73,7.3-16.17-13.64-39.52.29-50.51,3.68-2.9,8.65-3.43,13.34-3.7,34.43-2.02,69.27,3.34,101.49,15.61-5.09,13.01-10.18,26.03-15.27,39.04-1.41,3.6-2.84,7.43-2.15,11.24.77,4.27,4.03,7.58,6.97,10.78,13.74,14.97,23.38,33.66,27.64,53.53,16.9.86,33.8,1.71,50.69,2.57-.6,16.27-2.43,32.49-5.44,48.49Zm-74.24,26.94c9.73-9.67,23.48-17.3,34.64-10.36,7.65,4.76,14.93,15.9,22.57,11.12,2.72-1.7,3.96-4.97,4.94-8.03,6.17-19.28,9.24-39.55,9.05-59.8-10.08.87-20.16,1.75-30.24,2.62-5.02.44-10.37.81-14.8-1.59-4-2.17-6.55-6.23-8.91-10.12-12.45-20.44-24.9-40.89-37.35-61.33,6.84-16.19,13.67-32.38,20.51-48.58-31.72-9.3-65.82-10.37-98.06-3.08,4.78,12.54,9.39,27.3,2.29,38.68-6.78,10.86-21.05,13.56-32.4,19.48-11.85,6.19-21.33,16.6-33.82,21.38-23.86,9.12-27.39-17.42-43.35,4.99-14,19.67-14.49,57.42-12.48,80.28,11.33-2.15,22.66-4.29,33.99-6.44,3.21-.61,6.62-1.2,9.65.02,3.8,1.53,5.96,5.44,8,8.99,9.2,15.98,21.96,29.91,37.07,40.48,3.02,2.11,6.4,4.48,7.07,8.11.52,2.82-.78,5.61-2.04,8.18-4.71,9.59-9.43,19.18-14.14,28.77,25.75,15.07,56.94,20.6,86.31,15.31-.83-13.53-1.66-27.06-2.49-40.6-.2-3.34-.23-7.16,2.22-9.44,3.16-2.94,8.15-1.48,12.45-1.13,14.86,1.2,25.94-12.61,35.62-23.95,1.15-1.34,2.38-2.68,3.68-3.97Zm62.14,168.76c3.75,4.91,3.14,13.48,1.51,20.16-2.07,8.52-3.05,19.92,4.86,23.67,3.03,1.44,6.56,1.18,9.88.73,8.71-1.16,17.29-3.39,25.47-6.6,1.18-.46,2.45-1.03,3.02-2.17.57-1.14.27-2.51-.06-3.74-2.43-9.12-5.62-18.03-9.51-26.62-1.46-3.22-3.05-6.58-2.77-10.1.29-3.6,2.49-6.72,4.61-9.64,4.05-5.57,8.1-11.14,12.16-16.72,2.4-3.3,5.18-6.85,9.19-7.61,3.42-.65,6.81.92,10,2.31,7.55,3.29,15.44,5.79,23.5,7.43,1.79.36,3.75.66,5.34-.22,1.98-1.1,2.65-3.59,3.09-5.82,2.24-11.2,3.73-22.56,4.45-33.96.1-1.58.09-3.4-1.12-4.42-1.29-1.1-3.23-.68-4.86-.23-11.61,3.21-23.55,5.23-35.58,6.02-1.76.12-3.62.18-5.15-.68-1.96-1.11-2.84-3.4-3.81-5.43-2.41-5.09-6.2-9.51-10.85-12.68-1.8-1.23-3.85-2.4-4.7-4.4-1.43-3.38,1.21-7.01,3.68-9.73,9.3-10.25,18.59-20.49,27.89-30.74-11.45-8.18-22.9-16.37-34.35-24.55-1.53-1.09-3.28-2.24-5.12-1.92-2.5.43-3.73,3.21-4.55,5.61-3.65,10.71-7.3,21.41-10.95,32.12-.79,2.3-1.73,4.81-3.86,6-1.71.96-3.8.82-5.76.66-9.25-.76-18.5-1.53-27.75-2.29-2.96-.24-6.11-.56-8.43-2.42-2.03-1.63-3.06-4.16-4.02-6.58-3.24-8.21-6.47-16.41-9.71-24.62-8.98,4.08-42.85,17.28-32.85,30.3,8.5,11.07,16.99,22.14,25.49,33.22-3.43,5.41-6.85,10.83-10.28,16.24-.95,1.5-1.99,3.08-3.6,3.81-1.65.74-3.55.45-5.33.14-11.26-1.95-22.52-3.89-33.78-5.84-1.11-.19-2.3-.38-3.34.08-2.2.97-2.33,3.99-2.1,6.38,1.01,10.62,2.32,21.21,3.91,31.76.23,1.5.56,3.15,1.79,4.03,1.3.92,3.08.6,4.63.24,7.22-1.68,14.43-3.35,21.65-5.03,8.12-1.89,18.49-2.93,23.01,4.07,2.06,3.19,3.59,8.29,7.35,7.69-1.36,11.92-12.73,19.6-21.94,27.29-1.33,1.11-2.75,2.5-2.69,4.23.04,1.16.75,2.18,1.45,3.1,5.16,6.78,11.59,12.61,18.85,17.08.9.56,1.95,1.11,2.98.85,1.09-.28,1.74-1.39,2.26-2.39,5.19-9.95,10.38-19.89,15.58-29.84,1.03-1.96,2.38-4.17,4.57-4.44,1.96-.25,3.68,1.16,5.5,1.94,5.28,2.25,11.64-.89,16.99,1.18,1.76.68,3.13,1.76,4.16,3.11Zm-104.93-88.34c.05.64.1,1.29.16,1.93.06.76.14,1.57.63,2.16.47.57,1.23.81,1.94,1.02,8.87,2.59,17.84,4.81,26.89,6.65,3.74.76,8.2,1.26,10.87-1.47,2.53-2.58,2.11-6.98.21-10.06-1.9-3.08-4.92-5.25-7.58-7.7-6.46-5.94-10.93-13.67-15.87-20.93-2.19-3.21-4.59-6.44-7.96-8.38-7.85-4.53-12.27-.06-11.65,7.63.79,9.71,1.57,19.42,2.36,29.13Z"/>
  <path class="cls-1" d="m278.16,235.1c.29,2.57-.03,5.38-.85,7.71-7.21,20.48-29.02,34.18-50.73,33.9-21.71-.28-42.28-13.41-53.67-31.89-4.09-6.64-7.13-13.98-8.41-21.67-7.5-45.05,47.66-78.21,86.46-59.82,21.48,10.18,35.32,34.56,33.05,58.23-4.87-20.74-19.89-39.34-39.98-46.46-20.08-7.12-44.62-1.41-57.99,15.18-3.8,4.72-6.71,10.26-7.73,16.24-1.03,6.05-.09,12.31,1.8,18.15,4.53,13.94,14.7,26,27.79,32.6,13.09,6.6,28.94,7.6,42.67,2.47,13.24-4.94,25.17-18.45,21.42-32.08,3.79.12,5.7,3.49,6.15,7.45Z"/>
  <path class="cls-1" d="m239.1,223.56c-.11,2.19-.6,4.41-1.89,6.17-.99,1.36-2.4,2.37-3.94,3.04-5.3,2.33-12.15.28-15.29-4.59-6.01-9.3,4.78-25.36,15.46-17.93,4.06,2.82,5.85,8.09,5.67,13.02,0,.09,0,.19-.01.28Z"/>
  <path class="cls-1" d="m373.27,421.13c-4.35.32-8.77-.08-13.1-.78-3.55-.58-7.11-1.37-10.32-2.98-3.81-1.92-6.99-4.94-9.61-8.31-15.37-19.72-8.04-73.96,26.25-64.54,7.82,2.15,14.27,7.94,18.67,14.75,4.4,6.81,6.97,14.63,9.16,22.44,2.64,9.41,4.62,20.12-.51,28.44-3.26,5.3-9.04,8.72-15.09,10.15-1.8.42-3.62.69-5.45.82Zm-31.96-43.85c.03,1.15.12,2.32.3,3.53,1.11,7.57,5.67,14.65,12.31,18.45,4.11,2.35,8.8,3.42,13.45,4.3,4.07.77,8.4,1.4,12.26-.11,7.22-2.82,9.77-11.55,11.39-19.13.3-1.42.57-3.04-.27-4.23-.63-.89-1.75-1.31-2.5-2.11-1.36-1.46-1.16-3.71-1.24-5.7-.34-8.3-7.36-15.35-15.41-17.38-16.45-4.15-30.66,6.15-30.29,22.38Z"/>
  <path class="cls-1" d="m369.25,379.63c-.21,1.78-.21,4.23-1.68,6.35-.82,1.19-1.85,1.93-3.31,1.63-3.16-.65-5.27-4.08-4.23-7.03.65-1.86,1.53-3.67,2.49-5.39.93-1.66,3.12-2.47,4.49-1.91,1.67.69,2.06,2.18,2.23,3.76.07.65.01,1.32.01,2.59Z"/>
</svg>