{
    "controllers": {
        "@symfony/ux-autocomplete": {
            "autocomplete": {
                "enabled": true,
                "fetch": "eager",
                "autoimport": {
                    "tom-select/dist/css/tom-select.default.css": true,
                    "tom-select/dist/css/tom-select.bootstrap5.css": false
                }
            }
        }
    },
    "entrypoints": []
}